<?xml version="1.0" encoding="UTF-8" standalone="no"?>
<svg
   xmlns:dc="http://purl.org/dc/elements/1.1/"
   xmlns:cc="http://creativecommons.org/ns#"
   xmlns:rdf="http://www.w3.org/1999/02/22-rdf-syntax-ns#"
   xmlns:svg="http://www.w3.org/2000/svg"
   xmlns="http://www.w3.org/2000/svg"
   xmlns:xlink="http://www.w3.org/1999/xlink"
   xmlns:sodipodi="http://sodipodi.sourceforge.net/DTD/sodipodi-0.dtd"
   xmlns:inkscape="http://www.inkscape.org/namespaces/inkscape"
   sodipodi:docname="times_annotation.svg"
   inkscape:version="1.0 (1.0+r73+1)"
   id="svg8"
   version="1.1"
   viewBox="0 0 651 293"
   height="293mm"
   width="651mm">
  <defs
     id="defs2">
    <marker
       inkscape:stockid="TriangleOutM"
       orient="auto"
       refY="0"
       refX="0"
       id="marker1993"
       style="overflow:visible"
       inkscape:isstock="true">
      <path
         id="path1991"
         d="M 5.77,0 -2.88,5 V -5 Z"
         style="fill:#000000;fill-opacity:1;fill-rule:evenodd;stroke:#000000;stroke-width:1pt;stroke-opacity:1"
         transform="scale(0.4)" />
    </marker>
    <marker
       inkscape:collect="always"
       inkscape:isstock="true"
       style="overflow:visible"
       id="TriangleOutM"
       refX="0"
       refY="0"
       orient="auto"
       inkscape:stockid="TriangleOutM">
      <path
         transform="scale(0.4)"
         style="fill:#000000;fill-opacity:1;fill-rule:evenodd;stroke:#000000;stroke-width:1pt;stroke-opacity:1"
         d="M 5.77,0 -2.88,5 V -5 Z"
         id="path1011" />
    </marker>
    <marker
       inkscape:isstock="true"
       style="overflow:visible"
       id="TriangleOutL"
       refX="0"
       refY="0"
       orient="auto"
       inkscape:stockid="TriangleOutL">
      <path
         transform="scale(0.8)"
         style="fill:#000000;fill-opacity:1;fill-rule:evenodd;stroke:#000000;stroke-width:1pt;stroke-opacity:1"
         d="M 5.77,0 -2.88,5 V -5 Z"
         id="path1008" />
    </marker>
    <marker
       inkscape:isstock="true"
       style="overflow:visible"
       id="Arrow2Lend"
       refX="0"
       refY="0"
       orient="auto"
       inkscape:stockid="Arrow2Lend">
      <path
         transform="matrix(-1.1,0,0,-1.1,-1.1,0)"
         d="M 8.7185878,4.0337352 -2.2072895,0.01601326 8.7185884,-4.0017078 c -1.7454984,2.3720609 -1.7354408,5.6174519 -6e-7,8.035443 z"
         style="fill:#000000;fill-opacity:1;fill-rule:evenodd;stroke:#000000;stroke-width:0.625;stroke-linejoin:round;stroke-opacity:1"
         id="path887" />
    </marker>
    <marker
       inkscape:isstock="true"
       id="ExperimentalArrow"
       refX="5"
       refY="3"
       orient="auto-start-reverse"
       inkscape:stockid="ExperimentalArrow">
      <path
         style="fill:context-stroke;stroke:#000000;stroke-opacity:1"
         d="M 10,3 0,6 V 0 Z"
         id="path1119" />
    </marker>
    <marker
       inkscape:isstock="true"
       style="overflow:visible"
       id="Arrow1Lend"
       refX="0"
       refY="0"
       orient="auto"
       inkscape:stockid="Arrow1Lend">
      <path
         transform="matrix(-0.8,0,0,-0.8,-10,0)"
         style="fill:#000000;fill-opacity:1;fill-rule:evenodd;stroke:#000000;stroke-width:1pt;stroke-opacity:1"
         d="M 0,0 5,-5 -12.5,0 5,5 Z"
         id="path869" />
    </marker>
    <marker
       inkscape:stockid="TriangleOutM"
       orient="auto"
       refY="0"
       refX="0"
       id="TriangleOutM-3"
       style="overflow:visible"
       inkscape:isstock="true">
      <path
         id="path1011-6"
         d="M 5.77,0 -2.88,5 V -5 Z"
         style="fill:#000000;fill-opacity:1;fill-rule:evenodd;stroke:#000000;stroke-width:1pt;stroke-opacity:1"
         transform="scale(0.4)" />
    </marker>
    <marker
       inkscape:isstock="true"
       style="overflow:visible"
       id="marker1993-3"
       refX="0"
       refY="0"
       orient="auto"
       inkscape:stockid="TriangleOutM">
      <path
         transform="scale(0.4)"
         style="fill:#000000;fill-opacity:1;fill-rule:evenodd;stroke:#000000;stroke-width:1pt;stroke-opacity:1"
         d="M 5.77,0 -2.88,5 V -5 Z"
         id="path1991-5" />
    </marker>
    <marker
       inkscape:stockid="TriangleOutM"
       orient="auto"
       refY="0"
       refX="0"
       id="marker1993-3-2"
       style="overflow:visible"
       inkscape:isstock="true">
      <path
         id="path1991-5-9"
         d="M 5.77,0 -2.88,5 V -5 Z"
         style="fill:#000000;fill-opacity:1;fill-rule:evenodd;stroke:#000000;stroke-width:1pt;stroke-opacity:1"
         transform="scale(0.4)" />
    </marker>
  </defs>
  <sodipodi:namedview
     inkscape:window-maximized="1"
     inkscape:window-y="27"
     inkscape:window-x="55"
     inkscape:window-height="713"
     inkscape:window-width="1311"
     showgrid="false"
     inkscape:document-rotation="0"
     inkscape:current-layer="layer1"
     inkscape:document-units="mm"
     inkscape:cy="619.29311"
     inkscape:cx="1531.8262"
     inkscape:zoom="0.35"
     inkscape:pageshadow="2"
     inkscape:pageopacity="0.0"
     borderopacity="1.0"
     bordercolor="#666666"
     pagecolor="#ffffff"
     id="base"
     showguides="false" />
  <metadata
     id="metadata5">
    <rdf:RDF>
      <cc:Work
         rdf:about="">
        <dc:format>image/svg+xml</dc:format>
        <dc:type
           rdf:resource="http://purl.org/dc/dcmitype/StillImage" />
        <dc:title></dc:title>
      </cc:Work>
    </rdf:RDF>
  </metadata>
  <g
     id="layer1"
     inkscape:groupmode="layer"
     inkscape:label="Layer 1">
    <image
       y="0.95459777"
       x="1.1026573"
       width="649.224"
       height="291.33801"
       preserveAspectRatio="none"
       style="image-rendering:optimizeQuality"
       xlink:href="data:image/png;base64,iVBORw0KGgoAAAANSUhEUgAACfwAAAR7CAAAAAD6d6hNAAAABGdBTUEAALGPC/xhBQAAACBjSFJN AAB6JgAAgIQAAPoAAACA6AAAdTAAAOpgAAA6mAAAF3CculE8AAAAAmJLR0QA/4ePzL8AAAAJcEhZ cwAAD2EAAA9hAag/p2kAAAAHdElNRQfkCBsSMxOZHjubAACAAElEQVR42uzdZ2AU1d7H8V8KJIEQ IPQuKKAigopU6XaFa7vqgx37FbEXvPYuKnqtoGIXKzbs0kTpSBUp0iGBBEhCCgmBZJ8Xm63Z2ZJs dnYz388bZs6ZczhzZmf3nzMzZ+JsiipX7DG7BRFV73OfyRcWmd2wiGr6ns/kEeVmNyyi2k30lVp8 gdntiqyuE3yl7rnC7HZF1vGP+Urd+h+z2xVZA+/1lfr3XWa3K7LOGOMrdfHDZrcrsi79P1+pv403 u12Rdf3IcNaWaPbueNmTZXYLIirVd3J2odkNiyiDP0CyrBX8pfhMtVnrhFAzn6llFuuFXJ+pBy3W C3k+Uw9YrBf2+UwttlgvFPhMLbJYL4Q3Loi24E+68AizWxAxO943zLq8rdmNi5iNnxpmXdfU7MZF zN9fG2bd3MDsxkXM0p8Ms+6sa3bjImbebKOc+HtDqCbGzZpvlFPvVrPbFjk/LTXKSb/B7LZFzldr jHJajja7bZHzyabw1hd9wd9hx5jdgojx83N2eGezGxcxZcZZR1gnBC4wzuqabnbjImaXcVa3JLMb FzHG3/Fx1vly1F+GOYkW6oWFhjl1LdQLswxz6lmoF8I9CBBv9g4BAAAgcgj+AAAALITgDwAAwEII /gAAACyE4A8AAMBCCP4AAAAshOAPAADAQgj+AAAALITgDwAAwEII/gAAACyE4A8AAMBCCP4AAAAs hOAPAADAQgj+AAAALITgDwAAwEII/gAAACyE4A8AAMBCCP4AAAAsJNHsBgBAsApm/7V+X35yavMj e/ZJMLsx9AKAGBWrwd8V26T+T3im3bpC6VP9lMk5X7r3tGD/h82jpfEnmr2fhjv/S51qVHDPItdy XGqjI08YWtf3hu+9K3V822cLTr/H7G6obOKn0sODPZJKzvC9BzXA+YmJ6Ecn6GNZLdU64OHrmMI3 fz4gSUVFWas+b3rxuY4LFy98q5Yfh9YWA8HX5LD1x1VZ+9IO73tmsndOxqW68ULPpKXz/tqdn9To qF5eR8m4klrYC4U/L9uUfyCtRfdhXT3Ss35ZkL0vvXn/U9ND+q/D46E5vlIndTGhKVWTdbHv9H5P hvjLF5xQvhF2XrNfOutOj7QvX5YSXnN0r9F5ERE1dehN3akgxGrwJ0nzZg01uwm1gK2gYPuvk248 xex2oPpq+7Fc+8Aet7U9r8x+Is3sJu2fMEOScnIWf3hvb6+8md4bb356vSQdKsqY/sZ1pwVXSe3r hc/e22/feM1nve5q7ky2ffpWmaSsrFXv/OdfZu8QwqnVTc9K3w92/2sj801JV1XEV0bnRUyL/p2K 6Xv+Xso3uwW1Re6TE81uAsKk9h7LzXftkdTx/LFP3H3ZyWmS/rqnxOQmZV83w7GYe+9sr0zvsGfp f9Y7l3Oeft4WVCW1rheef32/c3nJtducy09NKqtYKn3xFZN3COF1Zn9Jz7uOu2zjS6Tu/2dfMTov YloM7FQsj/wp79VxZjchdl1mv7ZSnrd362pJn3aMyj9OEAxrHMvypwqlFtcOi5MkHfrmrRKtff86 U5tU+kCGlHpm58SNP+TI9lTnNu6ZP23x3Dj7kRIpedgR7XL+mZkjfdd4dBCV1Lpe+O47Scf06pC6 fcVvUv5971Tcv/LZr5L6nNRk9/RV0tQup0Z6J846znPdNmWPlGD6mGrwGtziWMp/R2pzgWOtpdkN k6Q7Vu9T1sTbnevfrJDqjbMPPRmdFxFTE4fe9J0KQkwHf/plWB+zmxCzTmnnXFz90nrpDV83Jgxq L9U3u6UIJKhjGfNm/SOlPu+ILBLPP/yuQ/riAjPuD3N6Y710/COp0pCLHl+o0omPubJKvpvktfE7 +VLHp5tLOvWK13+QpgztGKiS2tcLpZMl3TZSUq9zVzyYr4xvz5ck5UyWEsYNlzTyi9dsemVgSoR3 wvtq9Rd7JI2NisgpOPXOcSxlvSM1PafqNdWA9DselL4bcnzF6s5Jkm5pZV8xOi8ipiYOvek7FYQY vuxbR9ILxWa3ojbo9miqlLPMR07HoUOHBr4JCdHD+FjGvNmS7nQbVep5oXRwgZkt2v2t1PHpVElK vb+FNK/iZrzCld9O+Perhzw3zpkuxT9gv8ct9a6TpLKP/FZSO3thdp40YKR9ucdNkiouGH9cKl0x XJJ0wQip4Fsz90jS8omSTh1pcitqj4GnSrZnK36ubeNLpMEVg7tG54VpwnHoo26nfInh4K/tyVLW m2a3olZocbak1Wa3AuFQe4/lcinB4y+Rs+yJ5vnkoHR3xWXL1Iuk8j/sy/ff8sK0Qu+NlxySTnX+ +X97irSgzF8ltbMX/pTkvAJ2aktpXYkklf0opVfcAqZrk6RpZu6RtOexMqnz7dWvCBXGtpB2vWFf nrZcanJHRYbReWGWsBz6aNspn2L5su+Yxfv09dDuBrk7Zy/YlZveuuPZ3sOtW35elFPcus3xI90m yNozfd3u7Lz0Zs26DWscWm2LfvxnT91mA85uLinrh/m797due+LpMXfRraOkPPeEsj/WFZ/Z2asP pi/Yld+49cDhjTySC6b/tjM3/bCz+ntNOGbYZSbyfZxLZy9am3eoZau2w48Mvqpo3D1J/o+lbdHc v3KKGjU7YaDHPAYGH3+DA25Sx5QWSm09Lga2blCgPVWtzs9+B7tfttlSD+dHZuDLNq05x7j8Ckln O9cad12uosx2PivpVot7YY3UqJNzrdMulee2kvRXkXSq48codeB0ZWRWZ5eq69BDOVKDR5P87HaF vT/Myy5q3e6Es2JgukVfv3zGfO2Z0TeCYfe4vnvq33u7Td8M7ilp10Qp7p4GFZsYnBdmCc+hj7Kd 8i2Wg7+GY56Q7dnJPie8K37vC/u8Acu+6nNza7eM8invlknavPmPqbed4Eh79+NDkpSVpVlvXXVh cLWVnCF9kvrM75IOFGz66qFemvZaiaQtW/74dnxkbsH5+n/S6Mtc65dvV8LUpHMOaMDjzrSi80p1 4vhANaVKaiTJPhniN2mbH9ssHdnZfYKosvc+PiRp9+4V79463K3ojJfyJWVlLezxaNoV25zTSRke ABMZHOffX8yRpK1b9cXgO1MlPfe9NLGrq4/jvrT3jV7/TLp/eLTuXgWjYylp7YvrJGnPnjUfDh3j /IwadIuPA25qx5RLyvFMGrNfDStt99N4mxpPOKwk4HkQ8LSvqElG+7UuR3JNq9P0B+eFlF7NJSlv sUdtGZIOc612XS7tbeezkp9qcS/s9XgCoamkA5K0UFJfZ3K/6dIimeilv6X4B5wN9bXbOedLn7T4 8YWDkjZvnvP57cdV7b+KmMq/fAvGSe87Q5Kfn5a+SfO3Z0Y/AUbd4/Hdo57nfyHbs5OT7Vd/z3PO +2JwXpglPIc+ynbKt1gO/nTy9IXa/v7VPnIK71rrWLQtWP+s609N2wvfORYz/vvKEfalZ35xlSx5 /cBlQddW/KDjce7CB96a6ZxKeOOjL0Zk/we/UqbfXK39Z7s0oKH6zNHi/fUciX+USoGfnNsiye2X eusdud5bHHponrM7HnebWuIT5w3dK25ym2LEsMvM5Ps4f/uCK/W33S/Wkfp8Ly2tiHFWSLKtqJg4 ernjkltU7l6FLTI6lgsfOuBMnrXmecdGvrvF1wE3tWOS03NUsNhjZmJfH+xfnrWp0fOHKTngeRDo tHfUZLhfCyWd4NreNb3xpZKkNZ5hT47U1O3hqUOSGvqrpFb2QllnqYdrNUtSc0naICW4ZnzuJmlD W5nmx2mSrnJ2svGH+sPJjqUd416K7vmgff7yGfOxZ0Y/Acbd4/k7cu3ircp8a4ymLZUOcz2fbnBe mCRMhz66dspATAd/uv2q/fp4yOGV0svuXSslDOvTJH/pzyXKuWWi8wbpzzepywXHJG2f8X25Dkx6 VpL02y+Sup7cssGeLT/kSO+d2iLY2savV3rPTtlLMqWSsTlSp2ObbPrjoLRizVGR2P3Gxy/Wxgxn a2ZKOkMaNkelC4Y5EqdL9U4KVFHZH1Kya6uSByrFfnp5nqTWp3Sybfo5Sy84r2v/NknSUae1K133 /e4dzzknMzLuMhP5Ps5bXpLU4Yy2KbvmzZX+nnqxdEJCmZZV3IC0UpIqYpzCDdJRDaJ19yoYH8vN DxyUGp7WPXXvopmHtOuuycl+usXnATe3YzrkSE8/3N3/Rr88U65GEzoq8HkQ6LR31WS0X5ul+sE/ E3h5acWArN0mKb5NyJXEei8kvOi+VrZJal1PkjKkZq6wsUXdUu0wL/hb/6KkAZc4W2n4oV70tuK7 H5uy/c9s6cDrL1Tl/4oYX798xnztmcFPgHH3eP2O1L3vP2X6cnDzSVLif113RhmcF+YI16GPqp0y EtvBX/Nr/6ey8a9Vuub+2Wqp9eMdJQ361yNbVfi688LHJo0cmyCl9+j7X2lZYaokfS45XkB05X8X quz3C4KtbY2G3VFPOjDhFylHdceMkLR5XJb0T0SCPw1fLM1x3CZtmyWlnyj1SS7RHMfXfc4yaVCg 0YTyt9ZI56Q61ydtV8dTuzVp5rbJqmmSLrg+URp8yUvflzkesi56SdJNF0jqe8GT82Y7Hx8y7jIT +T7On5VJ/74xTtKZ05+Qpl0s1eu+XKsOJUrSjhzJeT/9yvKKa1NRuXt2xsey/JmD0gkPNJQ0/KL/ 7lLmuzf46RafB9zcjrlomZRzy9BTe/m5ZWm6K1YJdB4EOO3dajLar21SY0kq2lPYqHnA1y2e7LG2 ebnUoW7IlcR8L7izvb1bOl+SyrIk93nVGuxVRig1hVX+g6VS23FxjnXjD/UrttYPHCmp5PVvpRU5 ps63E4ivXz5jPvbM4CfAT/d4/450ueJt2Z5pvl+62m3k0eC8MEXYDn007ZShGH7aV5L+1V1a/7l3 6v4PpeTn7d9YHSe2luaucOYdeav9S7P/MKlspyQV/C2dWHGvS8J/46Xtwdc26IF6kpJuTZek+0dI UscbVKmKmnJSXek3x8rfWdJpCVJyX2mBY1R+Vpnkd8ZfW87aH0Z/IvW/xpU2M/4/ky/u3tr9i/xD mzTypkRJqnuH6+25X+VIl9p/Luo/dITKg+gy0xgc54VSmxvsZ/vJx0uZeyX1lUrsD8yukBKkLXmS pGX2rOjcPQU6lovXSR0ft1986PRssvR1kZ9u8X3ATe2YPn0k2Wbee87D3+002GTG0+VqWBGrBDgP Apz27jUZ7FfZdildZd/edPaVYy4dce/8UPbl4Is26eKqVFI7eqEsd9uqdy+ZIvUaIUn7yqQGbtlp lW5sjJyyR7OklMecF+38fKhLU188UpKSxx4l2Ux9RCWwyr98fvjYM4OfAD/dU+l3ZNSRUsYy+/RE vjnPC1PU0KE3d6eMxXjwF3dXHeld7z8Sp++XLnFciUi+SZLrFuorHFH9cZKKJCnTJg10ZDdoKxUG XVvyGPu/KX0k9a2oZGBCxL656veV1u2qWJkh6XRJGiIdcNwuPV1q3sNn2cuHDh06dOjQYeff+OxW 1b3qEfeBhIv/Hee5cdYSqdmNjk4f6xg8sP0oNb20YqXuDUEdgJr28FAPZzgzfB/nslzpaMdZ0Cs9 PT1P9lk/l0qSVkonS7aVkqTlUtPDTd49n4I6lt9LusVx5NpeJB2YbtwtBgfc3I55zH67WuFvz48a NeE3H+92nPVUmStWCXAe+D/tPWvyvV+Fh6RGO8e88LckHVh43+15Qe9JyeMrpdbDq1RJreiFm867 Yux7OxV/5uN1JKlE9geVnC2Rys2aGmPyn5LuPsy57u9DfXHFqFbCmZKifM7Zyr98/lTaM4NvBP/d 4/U7kvDfZEmqf69R2OE6L0xRM4fe5J0yFuPBn9pdLh14zuvFebOl+hc51/p3kf5yrHRwPlLWwbHQ 4qmnnhri3Lry4Kyf2o5zjGi3UUXgJSmhVeR2f7ik3+2LZb9J3dpLUt9k+1SwkjLWSqfGBa6n9VHu 1/+TL/XOX1wu/ct5vqcPrVjYkCmd4Xwo/gTnYwZ+usw8vo9zQrL9tnNJ0v9NnTr1cEkdW9hHs6QV 0vC2FSsFm6R+Ubt7TgbHsnyJdJjrl39EfMUDlb67xeCAm9sxdcY93Kviw7xz2sPnjvml1DP/tyfK lDbBeVO2//PA72nvVZPv/SqRpDudN4Rr2Y2Vb5X1bf31c6T6jyRUqZJa0wuS/nWr/dvjgLwu+8p+ k7wJ5nws6SJXn/j7UDc837EUbfM9Vebjl8+Pyntm8I3gr3sq/460PV+SLm0h39zOCzPUzKE3eaf8 iPXgT/93uLT8O4+k8nXSUW7XLLtKO/ZVLLse13H+Qjbq27ev85LD/kq3mgRVW31Jh7uvREjfes7r vstzJPswV1J/ab79uc4Zcp+GwdiWu8e4XQjoWenVSmvkNkDgWlwrj3fjOJ6R8tdl5jE4zm2llV96 b9tH+rtYUlaWEo453v5oq5ZX3NkWnbvnZHAstxa7T6ahJkfYD59BtxgccLM7ZvCzU8b0r3h2tXz1 U//2OPHnPFYmPeE6w/2fB/5Oe6+aDParWNKcTDW4/sVpnz51hqRdjwb1+vb8F/6zTarz+BFS1Sqp Fb0gSfrqYvuzxgckuX/ppMis4G/bM5J6XOtK8PehPtoZDNULrnYT+fjl86Pynhl8I/jrnsq/IwU/ SdJ3JfLF47wwQY0cerN3yp/YfuBDUsLd/ynTpH5N3ZJ27JfcH7joJCmr4kFr/4/clK56p9IArr/a mrtv2FyRV/ekX/T3nqaSNFNKHmJPHTxTJYtPkqTp0pHtfRe9zHGPanlezoK9Wj1mvDN6rbwnW6V4 t+lDHA/i/SOPWbsci/66rMZ5TU198DUf27gf5x7/SC/PGtHP/ZYj9flWZat6SyukzinHfavNuY2l FVKd483ePZ+COZZbJLmPSbdar5x8z5eXu3WLwQE3v2Nann9+2do//1xdJkn5z2+50fkX9ZxHyyT9 foxr26DOA1U+7b1rMtgv+09Yv7saS6nN+w5+dL+W/zFQgZR9806hpPbj7PMi+6rEAr0w/tC+lUvn linnqX3/lpTk7Am7/TJpXGL/A/ulZg+5DdNU/dckuoTW1spbG3wjBP3zKEmasFeSMl7z8f4Mr/Mi 8mri0Ju+U37FfPCnLhd8qqIXnnBLyZP0g9s3aIHs3yaScYS2f8v27du3bfdxn4m/2jwuoQRxdTX8 hv8i25zzJB2aIw2qGHPsk1Ks306StH678SR/p7jNObn/za+V8+D7js99s0obF0hN3D4qjl7MlRLc XgrgKOevy2pc78EeqyWewV/l4zxqTrb0118JR/TscZzzr7nj6xzUUnuM01M942xaNUhaKvVMNnv3 fArmWBbI89PfTFKBI/ir1C0GBzwqOiahW7fLi5f+Mv+gpKnpoypScx4tk6Spp7pmfgp8Hvg87SvV ZLBfdSSpxQMVwxt9LpskfREw7Nn81D+S4s+7tuISq69Kgro9KKZ7QWlK7/ivzS+ulF7v1dEe/BXI s+6QHhwOl2e2SYmPur/oxGC3JXlMpxn1QhubqLxnBt8I/rqn0u/IL7OlpsVFmta3v3eW93kReTVw 6M3fKb9iP/jTVb9nat6soa6EQkl793pu5Pib1udRsP06fZnhRQZ/tZnvhEZ5mnOepEWFjqu+UlL/ GZp/sI70q5QwLIha6o3duEqZP59ZsVr5JU+FHiN8SmqU50hu6vaXUjPX1lHZZT6Pc+NXJiyQVLZu 3afJA06uuDCafOyfWiZphXSsGh22WcsGad8WqU80756d0bEslOcPQHM57u731S0GBzxqOiZlwIDC t78plz48vWLUs1Tq1v0TlU14xflXWIDzwOi0r1STwX4lS9IY56WtC77O0uoi//d8lH36ziFJJ97o vFHIVyWBY6fY7gWHjhOu3yjbp/faK3EP/gqlODNukpoyR9ItHsM0/j7U0X+x1yW0+KPynhn/BBh2 j/fvSNZLku7MGS89N9kzr/J5EXHhP/RRsFP+xfw9f1LSXZJecnvqzddjYv4GIHbd9NRi+9dfgxPd HvWpYm2RlTBYWpUjaabU2nk7/xCpaIlUPlPqE9Rlt7jRkuY61ir/ReD9V3jFF3Op762itMsMjnOz px7uY9+fkhnj7q041/tKGwqUk6H47tLx0nJpua3iprko3T0HP8fSfXC6jipuq/LZLQYHPJo6JnXs +ASp+HtnwjHjr24n/e12B9wQf+eBn9PeqyaD/UqRFOd6t0Xi0VLZRr9N3nXzm4ekTs+Od/0c+Kpk d+3uBZeEeyWtkpSWUGnkr4EJV1L+fFvSGWd7pEX52R4xBt8I/rrH63ek/Oki6Yw+Z5wo5T7nkePj vIi08B/6KNipAGrByJ96nvW98l65z7neQNKjQf/1rPy7dkhq1q3b4R3SpW+8s0OsLdKGf6PyP0aq ZK50uvPrsne9/fqtn5bnBPNqN0nSEZL8zP1Uz+2RWEmHKh7oS5X2lLv+fsiO6i4zPs6DBxf+sXB5 niQtvOmdFEnq86rKlw1aIXVKlY6bqi25jZdLbdtE7+65+D6WqZKy3L6HsirSfHeLwQE3s2OeK1Pn 8zxSTrj8HWmzY+2Y8Sm6/TbpjQHOGVf9nQd+Tnvvmgz2q2FCmVq53dPeVvYrRYa2375HSr7uX/EB KvH3AxP7veDuiMa5yiqPV2KLTO+RPxPehJr1aJnU9TbPxGg/28Om1H+2wTdCCN3z2XKp6U3SnaOL NO/7s1wZvs6LCAv/oY+CnQqkNgR/unHBXv06vI9jNVUhfP1IU3ZIHa/pb5QdYm2RdkyLLM0Zqfkl ind9s9ftP11zyxKmS6n9g6smNaVYfgYc0qQ9Za7rMNnlzuSy3CbO5D1R3WX+jnPq6afbNi+cvV7K mjxGktq12qmlg1bYX0TaI75cKwevcDwtG52757YzPo9lqlzRuSTtkv3bzXe3GBxwMztmfo52eoY9 GvSO/UEWSUobnyL1PPUXFb7+X0e+v/PA+ONQqSaD/Upos83j6k+65Jzm3JeCu/ZIx4xrHbASf0/L xngvzP5HusrtR6djrsqKGkhtM5V9yJmeU2JG8Ff6YL7U8BGvIa5oP9vDZpf/bINvhOC7Z9NkSXfW l5rf+Jz06nHO88DneRFZ4T/0UbBTAUVxXBq8+rdKesH593LbBGlT0IXLvpeaPuf8+qs01BtabREX N1Ravk8zpOPdZk8aKhUuPThHGhbkbdO5xZ6zrHo5Qip3m8XcMa7UQR7fGY6/DKOyywId57hO/zdp XJzzgmkfaZlWSt0lpR4hLcvdXDGZXXTunhvfx7KjPL/fd0mpjQ27xeCAm9kxjaWNXketlVwXpOul SNKNqdL0pc4NjM8DPx+HSjUZ7Vd7aZtbnLND8nihp7fnsqSBE1oHrsTf/UQx3gvrpkyZstVtvViK qyfpcOnQBmfqWrnNnBUxL66XEh70noMu2s/2sAnwPj2Db4Sgu+fg44ekM/pI0lm9pOInnB823+dF RIX/0EfBTgVUK4I/nTRIynrTsZbcSfrTLXf6e+99bVx2T6E0zPVqvkpDJqHVFnnDpbK5RYtcj3tI 0on1pd/mFwV91VerJbUwzu4iye2xJ8c7nI6RR984fm6isssMjvOCt99+23m/6KkDpSz7lBN9pW2b tkjHStLx0ooVUsqx0bt7bnwfy/bJ0kLXas4/0lFxht1icMDN7JijpcIlnknZkpp4pDS6XtILBx2r xudBoNPevSaj/eohlbr9Hm6W3/GqtXOk7g9V+mPMRyWNjSuJ9V5oJcntjkDbFqlhguyzhS52Ji9V xSNEkfTtj5KuOd47OdrP9mpyPeuz2f+GBt8IQXfPG5vtF30l6c560t9TKjIMzotICv+hj4KdCqx2 BH+6JVX6xvkXZW9pu+vv3txn3313jXHRPXKf/2xF5UlpQ6ot8o5oL82Zc1CpJ7kl1ukv/f6z1Lpb cJUcnCTpBOP8XgnSNwcca4W/ViwcnSr96Pz6WO/8Vo/GLjM4zus/+OAD169OM8lmv/elZ13pPZs6 NJakntKWmVKvxOjdPReDY5lwvLRptXN1WpnUy7hbDA64mR3TV9KbnjcmzZT98rObs7pJOxy/K37O g4CnvXtNBvs1QNInzuStK6SOTWToGyn+rsqPsPqoxN+zsjHeC8dKmudaXV1s/wtS3etLvzhSy2ZI bSJ92ffvlyUN8vEG1ug+26trh2Nh/jb/Gxp9IwTZPcumyn7RV5Ja3CDpvXX2FYPzIoJq4NCbv1NB qCXBX/pNki3PsXZ2vPSic87Q90ulIcZF68ltxHvfeFW65Sak2kwwXFoyTRru8Sz/ECl/nvdb3A1l 3rNDSjjZeIP0vlLWG461SY6hsrqnSbs+rlgpezWqu8zgOLeR+6/RKinZPvddUk/pd8eP6rEJ0h+u F2RE4+45GR7LsyW95Agbtn8i1TnduFsMDriZHdO7tbTxUfepgNd8bH/c3V3cHQnSR86ftCFG50HA 0969JoP9atVN+sEZT79Q5negvewP6SgfEU1IlcR8LxzWUvptmWPt0ARJJ0lSwhnSDkf0NzXP/mmN pJyHDkkd7vGRE9Vne7UkyzWyZXs3wMZG3wjBdU/h0zbHRV9JGnG8VPZEiWR8XkRODRx683cqGLXi gQ9Jp89wuxbS8tSftP3OR9Mlqfyjr6WOfY1Ltk0u0cz/s1/62PFkplzPLVSlNhMMf0dlazyv+kq9 6xdJkp94bqbzrRA7tyw/IOlcf+8kvnR+ub6se02CpLLJrmkk/v19id5pNEKSSp9fGdVdZnCcT4gv 18y+9pde2d5a7wpk+iySreLiplKOXC2b60pU1O1eUMeyd+d/tP6h/6ZK0uZxJdLINONuMTrgJnZM 4g0PSnOvu2ZAxR/Uu77+5oB0rvdtNR3//YkOvvC8Y6eNzoOAp717TUb7dc1tst1z23BJynt2hZR+ jnHzdxdK+c94po1N8VnJL8a1xHov6N8vS888Yb+hb9eLm6U29lb937eleq1zR0la+Y7UyF8dNeHZ PZJ6zfBO7tM8+s72sGkr6buTj5GkspfWB9ra4BshuO55MVtq+h/X+t1XFWv7xFvl57yImBo49Obv VDBqS/Cn20e7/TU85s/dWn3pkM6d9u/4bpuUcK+fOaPqDPpFOWNHdW+cs23eL2WqW6pVb/Y4Il1V q80Ebbquk9Sxq0di4oBfJHX3c8Ppu17rPW7w958cee5U6ZPfT+sUv/XnLUroVXH3WItrXpFtwoxT 2h7657sM9d6RWTGXaBR2mcFxbjT8V+mp6UOa1tu7/ccMKcHxroQ+L0uOGEfHrZbU2Xk1K9p2712v dZ/HMuGe68u04IozutffO3/GIanNNX66xeiAm9kxAy/5SNr+UMNunRok7N2T9Ve5pG6jK212xaws LZ1eEegYngeBT3v3mgz2q+fQWSp6/Idjj8j95/dcKeG+ZBnaKWn7ds+0G1NCrCTme0Ejpm1R1vV9 urZJydg884CUeLc9ik2/+nXtG3vJSY12T596QLrZfyeEX6YkTa2UPL559J3tYdO022qV3XrhSe32 r/p8vc6f6n9ro2+EYLpnxgxJd7o9hdbihhekb/r18XNeREwNHHrzdyoYtSb4a3W166qj6j9/x24V //ijfS3hwS7+So5euE8Zz1asXNZqvDRlynj377+QajPB8HWSzvRKHPqLgn/cQ4o/e4z/OxRuzP5d ynjbvnJLoePMPz/zS/s9/5KOeeQa+4uaorPLDI7zDSuzZFu0qCI9bqzj1cBt2mRIrSteWnL8h3KN CUbn7rkYHcvDH334oHI+qlhrNT7ZX7cYHXAzO+aapPfKpH3zXJfp+/+38jdq8tj/Sq/1rfilMTwP Ap727jUZ7de92aulpRW3BSXe5eeuWWUa5oRQScz3guo8cXOOypyNT7634q8IXfjPdBVOmmRfuTSY 9xJFSnSf7dUxZuxBlX1sv29n0OgAwZ/RN0IQ3bP7RUmnezzCM2L2Mmn82w39nBdRoKqHPqp3yqmW 3PMn6Tz3VzC3e9V1E0zHVwb5LdjiOedfxO2fGn3qSZW3CKU2ScldTj4p0DbhNDTex01evVKlOkOC Kp+Q0uWCd28L8GRSwkOXObao/8gIV/qYG5MqlkZOSM6xT/gfepdFgsFxTv9fT9c2rZ8a6VzuK9d9 9N3qyD3Gicbds/N7LPu/0Nm5POyV1n67xfCAm9kxl03s4/6F1fmRJ3zNitL/JCnXcXeS4XkQ+LR3 r8lgv+o+d4GzQV1e9Pu3lvEU6iFUEvO9ILV+0y0I6Pm6q8Jx1zr+ZEm+++qAnRBJwXyom/Qc2cbs dobsyKccbY6/7EGjUMC5Z0bfCAG7x/ZUoetJ3wpxd6VIOc/7fbVAFKjioY/unXKIs1W/jnA6K+vu nuGpad1vf+7Zl9LsqEG9Aw7VHpj+Z0aGmh51Ut8EyTZ7aWKHQelVry146x9One0zY0jhI51Dq6qS kvOKNfjh8LVV0q7pC3btS2s+8PR0bV6vNsdUJGf9PG/ngWbHjDxKhSOkN48ItctWPNP8B58ZvcvH tw3rDhgcZ9vK33dmZR9q2aJl797BP6AV5k/E/JcP+8JX+v5BeiU91MoMlS+c+/feoobNew0+wpVo +PE3OOA12DHT3z7mXV/pWWfpHfsfGVl/rNmYX6DU1I5dTwzmHPFzHgRx2gexXztmLtqdk9y0+4Dq fA48K/n2k76v+Npqw8UJH6gW9MKGGaszisobtuxxkserVJX18/zs/MYtB57cWJI++fbkp32VXnZt 2sSq93QV1cj3fzAmzzj3v77S59zeckIYqi+btiRjZ0qTXqcfprLpgaeFNfpGqOnueXn+ddf5Sv/h wU6P18h/6Ma0Q1/JMytuH1X9WlxqzWXfSrp2DXrTpLPc3jUTN3Ro9WqLDrOLg37WN1gtL73UsdjR 7T1hLS6/vGJpt+xPz9pFX5cZHOe4Hj2qUFn07V4Q4vv1C7pbDA+4qR3T4vzQtvdzHgRx2gexX22d H/9qCLWS2O6FI47wnd4iHF1ZM2LybA9CwjnnOBeD+Lkw+kaord1Tu/et9lz2hYcfpUa9I/x/bpea Rt1drbA0M86D6EMvAPBUe0f+rG3rSml4jU8yeWhEuU673bk6UwpyUmkgIiJzHkQ7egGAF0b+aiXb m/Ke+a8mJLYqLZ3tfMPHut8rZmwFokOEzoMoRy8A8MbIX+3zWWmdBculARF4NfqwySp4+j77XxCZ D5crtV81KwTCJYLnQRSjFwD4QPBX+8xbIUnJkZgu4ZyvcjQj4/xuTQ/u+H1qsTS6fvXrBMIigudB FKMXAPhA8FdLJT4c/POZVZf66N37tfYJx+rQkdWpDAi7yJwH0Y5eAOCJ4K/26bsrp1n3y1tXv6Ig dHv1Oec73ZMvuIpbSBE1InkeRC96AYAPBH+1z8UXR/A/O+yVv+fv3JldJ7Vd90Hhm4wYqLaIngdR i14A4APBH6rp6KPNbgEAAAge1+kAAAAshOAPAADAQgj+AAAALITgDwAAwEII/gAAACyE4A8AAMBC CP4AAAAshOAPAADAQgj+AAAALCT63vDx859mtyBi8oyzvm1kduMiZo9x1tRUsxsXMVnGWR8nm924 iMkwzno3+r6qasoWwxzbZLPbFjkbDHOKLdQLaw1z8i3UC5sMc/ZYqBd2hLm+6PtGXWF2A6KCdSJg fxaa3YCoMNfsBkSF38xuQDQon2F2C6LBQXpB0n56QVI+vVBl0Rb89S40uwURVcd38oBSsxsWUfV9 Jw+xmd2wiGrkM9U21Ox2RVZzn6nxFuuFdvSCpI4+UxMt1gttfKbWsVgvNPCZmmyxXsh6L4yVNYi2 4G9pRvXriCFpvpPn55vdsIhq7Tt5drnZDYuoLj5T42aZ3a7IOsFnarnFemEIvSDJ900fhyzWC618 ph60WC909plaYrFeGPxRGCtrGW3Bn9SlkdktiJjCvw2zjrbO3W771hlmHWudu91yjG9xOq5OCPXE tuwthlm9rPNs2s7tRjlxJ5rdtsjZkWmUU+c4s9sWOVuyjXKSjzW7bZGzIccop343s9sWOev2Semt q1+PJKlga9Rd9pVuGmB2CyJm5WjDrDutc2bPG2uYdX8nsxsXMb/cZ5j1RPMQ6oltU58yzHohxezG Rcy7rxjlJLxmdtsi55V3jXJSLdQLT001ymluoV647xejnA4W6oWx86Tjrg5TZUufY6oXAAAAKyH4 AwAAsJBqXvYtvyr33v5u67ZFszfmJDXrdXJLX1v7zwUAAEBNq2bwtyzXYzV3wgpJpQWbvr5iROWN /ecCAACgxlUv+Cv7zGO1+KEtUnKLkmxb6ZuqFN/5zwUAAEDNq1bwl/P2Go/1yVuUeNVpdZXx2iq9 1aO919b+cwEAAFDzqvzAR97sjx67eo5HUsZ06eYRdaU2jxwum/d0hP5zAQAAEAFVDv6WTvh0cZln 0oxydbC/biXxMmlhQSi5AAAAiIAqB3910tLS0tIS3JMWSI4JmnukqnyxZwH/uQAAAIiAKt/zN3Cg JN3u9lKqoh2SY9qXhN4ztXaY+/b+cwEAABAJYXy923YpwfkYR0dpR9C535U6F21mdwgAAEBtFsbg b5fUwLmSJu0MOndCvnOR6Z8BAABqUBhf71bsFd7tDyEXAAAAkRDe4C/NuZImldiCzwUAAEAkhPGy r6Q455JNstnigsxt5RoTLBMAAABqTBiDv2TJNXlfvpQUH2yu24zP/zK7QwAAAGqzMF72TZFcD24U SCkh5AIAACASwhj8tXAf2yuQmoeQCwAAgEgI42Xf9tKhXY6pWjKkDiHkAgCA8BvlsTbF7OYgKoRx 5C+1jbSgYtm2QOoSQi4AAAAiIYzBn/pK8yoW1+Uqvm8ouQAAAIiAcAZ/w+K1bpV98Qupd8NQcgEA ABAB4Qz+2g2T7dk1kkonLVL8ZfbE/z355LvGuQAAAIiksE7yfM0/W/Pu6dK2+K8C6fp29rSluepq nAsAAIBICufIn+o90l1aP3N+gZJuPCPEXAAAANS88L7eLf3xBbM35iY3O/GU5iHnAgAAoMZVM/ib 4LUe16+fV8p7fnMBAAAQSWG97AsAAIDoRvAHAABgIQR/AAAAFkLwBwAAYCEEfwAAABZC8AcAAGAh BH8AAAAWQvAHAABgIQR/AAAAFkLwBwAAYCEEfwAAABZC8AcAAGAhBH8AAAAWQvAHAABgIQR/AAAA FkLwBwAAYCEEfwAAABZC8AcAAGAhBH8AAAAWQvAHAABgIQR/AAAAFkLwBwAAYCEEfwAAABZC8AcA AGAhBH8AAAAWQvAHAABgIQR/AAAAFkLwBwAAYCEEfwAAABZC8AcAAGAhBH8AAAAWQvAHAABgIQR/ AAAAFkLwBwAAYCEEfwAAABZC8AcAAGAhBH8AAAAWQvAHAABgIQR/AAAAFkLwBwAAYCEEfwAAABZC 8AcAAGAhBH8AAAAWQvAHAABgIQR/AAAAFkLwBwAAYCEEfwAAABZC8AcAAGAhBH8AAAAWQvAHAABg IQR/AAAAFkLwBwAAYCEEfwAAABaSaHYDAABAbTfKfWWK2a2xOkb+AAAALITgDwAAwEII/gAAACyE 4A8AAMBCCP4AAAAshOAPAADAQgj+AAAALITgDwAAwEII/gAAACyE4A8AAMBCCP4AAAAshOAPAADA Qgj+AAAALITgDwAAwEII/gAAACwk0ewGWM4o12Kx9pvdGgAAYDGM/AEAAFgIwR8AAICFxPRl31Ee a1PMbg4AAEDUY+QPAADAQgj+AAAALITgDwAAwEII/gAAACyE4A8AAMBCCP4AAAAshOAPAADAQgj+ AAAALITgDwAAwEII/gAAACyE4A8AAMBCwvhu35kveiVceqHH6rYxbitpH5q95wAAABYUxuAvkEyz 9xUAAKAWKl7315b8/MKU1LRWRx/ZPNDWNRn8pXiuEvwBAACEWfnir5aUua23PvOMdL8Fwhj8Dejh trLngZLDT/fMz5Su7e9Y4V5DAACsapT7yhSzWxPjFrzsNbyW+dY7p9zQ0E+JMAZ/SUmuZdvzJfXu qeOZnyF1bWJ2DwEAANQaRa/8VDmx7Kd5/znNuEwNXfb95C/d0tIrLVNqY1rfAAAA1DZFd6yTJDU4 6shmafUPFBZsXr+pTFL+0zuuNixUM8Hf6k/1r35eaSW5alzf7D4CAACoLUruWScpYcDZveKcaYUz f1wr6cODNxiVqpHgr/D58k5Xeicy8AcAABBGb6yW1PHuI93TUkeOnP16tvRpl2EGpWok+Ptgj65J 8E7MkNrmf7U2Y3+jzn0GJlSlWgAAADhs/FZS/0cqBXNDet27Wnq5V5rvYjUR/G37Wf2OqZSaKa2/ tlhSdvbcj+/o4p41LN+52DJg7QAAAJAmlUnHP+Ijlkt97s7Vypt8m+9iNTHlyuTyxCsrp2ZKm4rV vFN9STvvXWFiVwEAAMS8vKVS0l0+x/GSxyVLMw/5LlcDI39LlunsVpWTM6S4My9oIuV89V3ZoWde bxh6zQAAALCbWyadb3DNtM15U1S4qL/PvPCP/JVNVupFPtJLmza98/omktKvfjhOhV+Y11cAAAAx b7Gk4UaZp0qa6zsr/CN/v2douK8pXV5yLfY47Sf94Tb9zEMHfW0FAAAAI1lSs05GmR1aZBm9WTf8 wd939mDTr8E/ae+epq5VV87LNdlJAAAAtUWu3wdlm2dpj++csF/2Xb9e3doF2qi9pLxIdQ0AAEDt kyM1Ns5NU8SCv++k0wJuVCdOSo5Y3wAAANQ6iVK5ce4ef+XCKu8Ppfp8tGT6Rp14vGNlm03xTYOv FAAAAJ7SirXPOHen1MB3TriDvxmH1K+ur4yE7/WXM/hbJB3FyB8AAECVNczSxjKjl6YV5UvpvrPC fdl3odTdZ0b/FG2dWrG8cap0uhm9BAAAUEscJe1faZQ5V9LRvrPCPPJXsE7yfLPb/4rU+kpJSad+ o/f2nt9E2j/tizIdPcjc/gIAANFplGtxp9ltiWrHfiNNOc533qGPJfXwnRfm4O9Pm1p63sy3NFdd JUmXrd6g775Pb7w3V1KbcXHm9hcAAEBM61Nvv5ZMPd9Xlu2lLVKjfr7Lhfmy72LvgT+Xuo+fnCDb 3g25UtzA53m5GwAAQDXUP0vSax/YKufkPz5N0rl1fZcL78hf+TLj4E/1xl707dbsPSnNjh3a0cSe AgAAqA0unpGj8rfnXNYnyT21bMWs2YWSOv2fQbHwBn/xUyolvee23OJakzsJAACgtki//85yacND dY45fmAHZ+qYtfbMh+sYFAv7JM8AAACIhOMeTJKkg8smf+5K3C9JavOy4QvXwv9uXwAAAETC4Bbj N/tKr3PRpUmGhQj+AAAAYtSRb/7y6VbvxI6nnt7ITxmCPwAAgFiVcMYZm39f4z78d9thjfwXIfgD AACIYR07SmWu1Z6BtueBDwAAgBiXEMK2BH8AAAAWwmVfAABi2Cj3lSlVrQVWwsgfAACAhTDyBwAA EIsuDJD/me9kgj8AAIBYtLtqxbjsCwAAYCGM/IWfx7233HwLAABqRFe3ZVvebpsktasXsBjBHwAA QCya6LFWmrny681KejI9UDEu+wIAAMS+uoeNfHO0NozZF2hD6478MTESAACoVRIu09s7xz8RYCvr Bn/VwV19AAAgCo2avm3e0uP9b0PwBwCAVTB4UeslnPy2ZsR28FcbPqW1YR8AAEBM6CitDrAJD3wA AADUIjkB8qN85M8Lg2gAAADGtkkHA2zCyB8AAEAtUTZdahNgG4I/AACA2sH23mapbYCNYuuyb5Ti ajQAAIg475v7Cjb+tFjSUQGKEfwBAADEovN9ptY/I0CxaAv+9mp8fdcag2gAAAAhiLs9LcAW0Rb8 AQAAoKrSxw4OtAnBHwAAQCwaWSklrXPv5IDFCP4AAABi0W1VK8ZULwAAABZC8AcAAGAhXPYFAKD2 8Jh6lkkz4AsjfwAAABbCyB8AAECsKtlXKalFgCIEfwAAADHp0NQftlVOnRWgFMEfAABALCq4e21V inHPHwAAQCx6ukqxHyN/AAAAsWjFPEkJh3dKDbEcwR8AADFll9t0LkzmYmUzJR02rkvI5Qj+AAAA YtB2KenJVqGX454/AACAGJQhnV2F2I/gDwAAIBblSp2rUo7gDwAAIAY1lppVpRzBHwAAQAxqJuVU pRzBHwAAQAwaKC2pSjme9gUAAOE2yn2FCWlqxinvHJh1WZvQyzHyBwAAEIPSx6j0ofzQyxH8AQAA xKKzz9XG6+baQi3GZV8AAICYNLb1xKz7W3Zv3bpRnFvqiQFKEfwBAADEoN+flyTt2uWVPitAOYI/ AACAGHRoX9XKcc8fAACAhTDyBwAAEIO63l61cgR/AAAAMah166qV47IvAACAhRD8AQAAWAjBHwAA gIVwzx8AAEAs25+fH9egQf1gNyf4q8AbqAEAQMwpn//7qkxJUvMjjx+eGkwRgj8AAIAY9dsbmY7F 7Ow5r59yTcPAZWpT8OcxeFfN0TsGAgEAQJQre/5Hj/UD3/1xV/+ApWpT8AcAAGIQIy5V9ezPkpR8 eOM/pI7byiTlPfjgoEClCP4AAABi0Xc/S+o56vgEDZXePLjulx9tKnt00uEBijHVCwAAQAwqeUfS NS+cmGBfTe5x1+tdpLIXbQHK1eaRP0aRAQDww+tmef/3zofzznqExR850rmXuKd0ffHW9fprZQ// 5Wpz8OeFWBAAANQeC6WU0Z5JKfdcW67fAwR/XPYFAACIQf9IR3pP7Nepu7QyQDmCPwAAgBiUI3Ws lNhd2hugnIUu+1YHNzoAAIDosl9qVSmxgVQYoBwjfwAAADEoVdpXKXG31DxAOUb+AACAD1z1inYt 9ml7pcQFUpsA5Rj5AwAAiEFHS/NyvdKm7/B1I6Angj8AAIAYNFA6ONFzRueN/5MSRgQoR/AHAAAQ g47vKP3yfJEr4eBHYwqlQa0DlOOePwAAgFh0+1ibvp9zy3BJ0podm//IlNT4mkDFCP4AAABi0TFj XpYKVtqDv5vtafXHBxr4I/iDKdweIdsfcDJKAADgy3kpL5V4phxxxxEBSxH8AQAAxKYzjvtouttq m8tPDuJpDoI/AACAGNXyjlv2SOqRXC+lUdduTYIqQ/AHAAAQsxJbSnoxlBJM9QIAAGAhjPwBAADU EmU/S2cG2IbgDwAAoJYofzZw8MdlXwAAAAth5A8AACAmHdxa4p0i6S9J0jGGpcIa/G0b47aS9mGl fNui2Rtzkpr1OrmlWZ2EmjPKY22K2c0BAKCWs01595CvdPu7PmYZlgtr8JfpPzt3wgpJpQWbvr5i RIS7BwAAoHaZ81bVykUw+Ct+aIuU3KIk21b6poj+AAAAquGrKpYLd/B3bX/HSqVHSSZvUeJVp9VV xmur9FaP9hHuIAAAgNpku9TgtCaeAdehN6UbA5QLa/CXIXU1fLFIxnTp5qGS2jxy10bbR+NM6yoA AIDYVyDd4D2ty8E3pQsDlAvrVC+ZUhvDzBnl6jBUkpR4mbSwwIxeAgAAqCXSpVZVKRfOkb+SXDWu b5i7QBpQsdgjtbB88bAI9k6txlO2AABYUXqW9lWlXDiDP78Df0U7JMf9gAm9Z2otwR8AAECV3bpP HbzTEsYHLhfO4C9Dapv/1dqM/Y069xmY4JW5XUpwPuTRUdrhlvfGgQj3VrQr0sPJrjUG8wAAUYfr Tubr4iMt/sTA5cI88rf+2mJJ2dlzP77Dq0W7pAbOlTRpp1veJ/nOxaRIdBYAAECtsHXDgUDv8vUW 5uBvk9Q8NatI2nnvQz08Mou9gr/95nUTAABALWD79f0MtbEHfzu/2by9TtvBwxMClgrzZd+4My9o IuV89V3ZoWdeb+ieWSylOVfSpBJbnNk9BgAAELvKnvnVubzw4RJJ2+Z99mjrQMXCGfyVNtVVAyUp /epeD9oKv7jaK98V7dkkm1vw16XIubgpwt0GAAAQm6a4Yr99T5TYFzbe9np6gGLhDP5eci32OO0n /eER/CVLrqn98qUktxkGJ7oWT4pUfwEAAMSyfR9IiusyVJJeK5AUJ5uU/dLDAcqF9Q0fbgb/pL17 mrolpEiuxzoKpBTz+goAACDmzTgoNX2iiyTt/VWKu/yCsjmvlOq37e38lwvrGz7ctJeU557Qwn3k r0BqbmZvAQAAxLiVkp61z67yu0065crUhiP+K+nXAOVqKvirEycluye0lw7tcqxkqPKshAAAAAja BqnnYfbFOZKukKSBh0mrA5QLY/A3fdKkpc6VbTbFu1/1VWobaUHFsm2B74kJAQAAEJx90pH2pcKV UufWkhTXXdoaoFwYg7+E779/x7mySDrKY+RPfaV5FYvrchXf1+weAwAAiGHFUmP70soyqY99saVU GKBcGIO//inaOrVieeNU6XTP7GHxWrfKvviF1LthSHUDAADAXR3nNHrLJFW8XKNUsgUoF8bgL+lU 6b039kra/+m9ZTp6kCTpf08++a4kqd0w2Z5dI6l00iLFX2Z2hwEAAMSyetJu+9JKKaGbfXGnlBqg XDinerls9QZ993164725ktqMswejS3PV1Z59zT9b8+7p0rb4rwLp+nZV/28AAEC0GeW+MsXs1lhD 2xxtlCTl/CN1tk+iVzRPChRkhfNp37qPn5wg294NuVLcwOcrXdet90h3af3M+QVKuvEMs/sLAAAg pnWRlmVK0iyb1F+SVPJcoXRMgHJhneS53tiLvt2avSel2bFDO/rITn98weyNucnNTjyFSf4AAACq 5aQvZHtyfD3lTJE0WNLu95fsknRagHJhfsNHi2u9U95zW47r18/kbgIAAKgdjj1si1Zf1bvObzlS p/aSsr6TpNMjedkXAAAAERJ3S5yU/d1XOZJudKZ2GxOoHMEfAABALOp5s2NpRK+KhZRLn68fqFiY L/sCAAAgMs5t/9omScnXnitJanV3y2PqBC5F8AcAABCbTpi8bfuBdu0qXqrWJLjZVNyCvwObNuwt 2l9Ut35q2hFdAg4ZwjQeUylVcy4lpmUCACCWtW8fcpGK4C9v+k8zt5a7kuPaDhlxKm9gAwAAqGUS JWn7s28Veybbtn/wQcoNd7c0u3kIWTjHBQEAQK2TKGnS2FJfWcUvTJx4udntAwAAgJGSfZWSWgQo kiiNedW+mN46PT29cWp+Xm5u3q4sSSq+Yt0TZu8TIimkWwAZYwQAwFSHpv6wrXLqrAClEvX2q5Li hl0y8Aj39Iz5n39bIj3Z899m7xcAAAAqK7h7bVWKJebcLKnvG9290ttccEH2bVOk605vYPaeISZ5 jQsyTAgAQJg9XaXYT4kf75dO/9bXjIDNPzrsSeV9PtrsPQOBEwAA8LZinqSEwzulhlgu8Uup3gcG s0E/8d1KfUbwBwAAEHVmSjpsXJeQy8VvkUY2NcodLW0ye88AAABQyXYp6cnQYz/FZ0qdDXO7SDvM 3jMAAABUkiGd3aoK5eLrSwWGucVSqNeRAQAAUPNy/Q3g+RHfRppvmLtAamv2ngEAAKCSxlKzqpSL P0Fa+LNBZuYk6QSz9wwAAACVNJNyqlIu/gpJF83zmbftlHzpCrP3DAAAAJUMlJZUpVz8oH7SvoE3 Vp4lMPOxo/+WTjrJ7D0DAABAJackaVZGFcolxk3puU/lEyeeMLB328aNG9eTSnJzc3cumf9HuaTG zCgMAAAQhdLHPF/60IS0kMsl6rDp522X9OefkqS6DYpKXLntv25n9o4BAADAh7M3fbXxupv7x4VY LFHqtWTs5+WO9dK9rrz4C1+q0kMkAAAAqHFjW0/Mur9l99atG7kHgCcGKJUoqfknDz43bY93TvMR dx5p9j4BqO3cXl29T1vNbg0AxJDfn5ck7drllT4rQLlESdLRb5cvmb1u/YbcA5KU3PjwLl2H9gp1 EBEAAACRcmhf1colVvwb37u3JJXtL0muH2/2zgAAAKBmJHquJjRoYHaLAAAAEFDX26tWLrFqxQAA AGCm1q2rVo5LvAAAABbiNvJ3YNOGvUX7i+rWT007okt9sxsGhGKUx5p5c5PXQDvGuJ2kTLoOAKi2 it+VvOk/zdxa7kqOaztkxKkNzW4cgFBESwgMAIhmiZK0/dm3ij2Tbds/+CDlhrtbmt08AAAAhFOi pEljS31lFb8wceLlZrcPqL3cBuoKtNPs1gAAYtf6m6Wfg904URrzqn0xvXV6enrj1Py83Ny8XVmS VHzFuifM3hsAAAD4VxrCtol6+1VJccMuGXiEe3rG/M+/LZGe7Plvs/cGAAAAYZOYc7Okvm9090pv c8EF2bdNka47nVmfAYSEB08AIJrFf7xfOn1Odx9ZzT+6T8r73OwWAgAAIGwSv5TqfVDHd+YT363U Z6PNbiIsqlx313WtMXwEAEBYxG+RRjY1yh0tbTK7hQAAAAibxEyps2FuF2mH2S0EACCGedwFy1UM RIHE+iUqMMwtllLNbiEAAFbhFilmaY3ZrUEtFd9Gmm+Yu0Bqa3YLAQAAEDaJJ6zUwp9P852ZOUk6 wewWAgBQBUw6BAtpeFYIGyde8Y500Q/9feVtOyNfusLs3QEAAIA/Le4MYePEQf3ma9/A62450jsn c/IzRdJJJ5m9O4ga3LQMA3w0ACCGJMZN6blP5RMnnjCwd9vGjRvXk0pyc3N3Lpn/R7mkxnyPAwAA 1CKJOmz6edsl/fmnJKlug6ISV277r9uZ3UCEF0M0AGJZvtuXGF9hgJvifXn7kho2SksIvGmi1GvJ 2M/LHeule1158Re+1MzsXUE1ccMzAAC1XOHiZUsz7ItJ3Xoe3y3A5omSmn/y4HPT9njnNB9x55GC pTFMCABAtMv5/Nv9zpUDS5e+ffjFQ/2O/yVKko5+u3zJ7HXrN+QekKTkxod36Tq0V5zZOwMAAAB/ bJ9NPuiVtPGJd+7zN/qXWPFvfO/eklS2vyS5frzZ+wGg9uJWBAAIn8Kn5lUsJTRsUJpfZF/OvOXK UcbhXKLnakKDBmbvBYBgEUcBgLWV3P6PJKUMOe7YFpJUun7lwpWSyiZn3m1YKDG4ugEAABBdyh79 R1LqJSPqVyTUPeaYURs//VXSj01HG5Ui+AO88JwLACA2TJkv6dj7WngkHn7fKc/ulj44YpBBKYI/ IIbU4HXemot5uTgNADUj92NJfZ6o9GjviRPHZkiv9a3ruxjBH1CdsMd/WcIeAEDN+bBY6vKwj2ld 0p//T46yPrvUdzGCP8SIkOKoKA26orRZgdsa3U0FAIs69KMUd3uyr6wWYx+Wvr7E97R9TOsCAAAQ g1YUS8O7+s4b3FPau9Z3HiN/iE2xNIhmFvoIAGq1BZJONso8a7n0+1E+swj+AABWwJ9DqHX+kZKP N8rsl3hIG3xnEfwBAOClWpFiCA+CEYOiOvKkdnWMMuu32q49vrMSJwWo+Hqz9wwAgGAQVsFicqR0 49ym25XjOyfxhgAVE/wBAFBTiFhRdcVSsnFuPWm/7xwu+wIAYlTEAifuF0RUarRHeca5xuOC8R+P qCsAAADElnRpr3HubsPgL/Hii3Ofea5M0jVtzd4HAAAABKmJlJFjdNffjj1SM99ZiVLjp7tcLema PmbvAwAAAILUY75s8842yJwt6TjfWfGSdNVRAgAAQAzpL+mrct95Jd9WbOBDvCTF3WJ28wEAABCK du2kTT/6zntvt3Rkc9959nf7Gr4bBAAAAFHpEkmv+3yNx2+fS7rCoJh9qpeO9QxmggFQWzBXBQDU Mqd8vlFF90zoUClj9uNlUq++BsXsI3/x3cxuPgAAAEIRf3OClHPDD17Jhc88UibVH2NUrGKS5/+u VTuz9wAAAADB63H7s1LJs9MuGpjgTMuc9n2BpMTHOhiVqgj+/vUvs5sPIIrxBioAiEZn7nlH0tpH Uo/t0aJR/ZL8nHWrt9gkqc79xxkW4vVuAAAAMeryds/tl1Q4b55HcocHDjcuE292owEAAFBFQ984 oVJaysWT/MR+jPwBAADErjbPrf14bplbQquRI+r7LUHwB4Sk1tz8xswvAFBLHPlIyYo/N+flFdVP S2t1bI9WgbYn+AMAAIhpyX36hLA1wR+shzEvAICFEfzBAoj2wq3WXPwGAAsi+AP8I84BEABfE4gt BH8AAACxaGqA/PN9JxP8AQAAxKJXAuRHJvgrmbV0U0F5o84nDk6olLfN/QXDaR9GtHcAAAAghTv4 W/JiviRlZ8+dckt378xMs/cVAADA8sIa/C14yibVaV2eWabs++/p75VL8Aeg5vFsN4Lj9UkJ6YPD pwxR4oWKf+Mmr5L6XBxssXAGfwUv2tTw2pPidXDGh/m2CYe38MzOlK51BoS8UxgAHNxiiRxtMLs1 UdALe7TO7NYAsaCnY+HpO9do4TGXBlksnMHfd/uV8FRbSXVOP/bWktJPbvHMzpC6NjG7mwDEoqtc fy8yygIA3uqNv2O9JsePCm7rcAZ/C6Wz2toXW18yWfPHxnlkZ0ptzO4cAIgMZn4DEEGpz47ZrjcT LgpqY9ef0y/bfGTvviD4/7dks9TPsdJT2p/rmZ2rxvXN7hsAAIBap+TjTEkTvwhqY9fI39jv32nl nfvlDbuD/3/32qTDHCsNK2Uz8AcAEcIDCYC1LH5hpyTp1bjzg9ja7bLvz93fPNcjL+fmkL4xGtyq BOfQ3gapXrpHdobUNv+rtRn7G3XuM9BzFsACW3D/AwAglnDxG4iEvFenS1Ji3EG9En9u4O3d7/nb e97VL6a6Vr+/dmdI/3XaMNey7XPpOM/sTGn9tcWSsrPnfnxHF/esf+U7F5PM7T4AAICY8uPrBZJ0 zB1Z9x/SSwkjAxZwBX+n/iJNnv1h34rV/NvelqTLq9QM2ytrFH+JZ1qmtElqnppVJO2896EeZncV AMSUMrdhNAbRAFTY8dwKSap//dlxhz364CG9GH92oCKuBz5+fqOBtPGkhw9JkqYf87aktt+/V5V2 bL/nV+nqtp6JGVLcWe+89eLH7/4rQYee2Wd2ZwEAAMS2Qx+MXiFJg94fESf1eyhBtgk/BCrkNtny tX+dLJU9ctIGqeimU7dLuvqvM6vQjpzXxq5V3NUjvJJLmza98/omktKvfjhOhcE9jwIAAADf/rr2 7YOSWjz5iP1Bi5MeSJDt+UCl3O/5a//LpLsKtbDni12u2iSp/ZunVqEZJZ9OK5U63tTFO+Ml12KP 037SH1e71p875Fy83exuBAAAiAkTvrNJSjh3dIojZbDt8bLyQMU8JnmOu+H00bNUdK0kxV33bIMq NGPhpD1Sk3+fluB3q8E/ae+eps7V483tOgAAgNgzTZKOuLOrW9KQsqfKAhXzesPHYTNeu6dIkg6b PCxQUR/yX14oNb7g9DoBtmsvKa9pMDUCAADAQPKVF3gOuA0veyZQGe/Xu9lK7fFij2Or0IDsBzOV cO5FgadrqRNnU7Jp/QQAkcasywBqQu9bK72h49RQR/42XDnXvvDN/NeCmSPaw4HHMtXy/va+M6dv 1InOy7vbbIpn4A9AzQsp6CJCAxBTGt803EfqGYGKeQR/tlfu3S/Fjfn3NeuVfcH/vdwktCb8slVt xhvdKJjwvf5yBn+LpKMY+QNQm4T0MosYCjNjqKmA5byfWqVi7sHfptG/SWr77nAtu/N16eOZE88J pSrbNOlWw4dE+k8s3jq1YjBx41TpdLM7DECM8opGCE4AWFXVYj+34M828a4iSZe+3Eiq99rZo7OU de4lL6UHX9WyXWreIs8toZEk/a9Ira+UlHTqN3pv7/lNpP3TvijT0YPM7jAACCCa30wbzW0DYLq1 OyUNNch0BX+nzJDUZOIF9rUzV13zrfTRzEkjAlXvtFXKdn8bXMJXkrQ0V/YnkC9bvUHffZ/eeG+u pDbj4szuFgCwisjd+UhMCkTShb6TP5O++UnBBH8zJJ05uaVjtdk3b91apJ0jbUG3YJf/7LqPvzWr zLZ3r6S4k26qZ3Z/AUAtEhsXv71Cw9hoNBDFdletmPs9f6nPX+eedc2QyxaEUtXOAPn1xl707dbs PSnNjh3a0YweAgAAgFvwN+D9Tp55R/z+xOOHgq/qUZ+p77ktt7jW7N0FAACoJbpWrZgr+Hv6rvhK mQ+dfqnZ+wUAAAAfJhrmXOjvRW2u4O8eX9l9lpu9XwAAAAhJR3932MUHKFzf7NYDAAAgfAIFfwAA AKhFCP4AAAAshOAPAADAQgj+AAAALITgDwAAwEISq18FAFgRr7EFUIPcvmJ2hLlqgj8AFsLbZAGY J1r+ZCT4A2BdxIIALIjgDwCCEy1/tId3R2J6T2Blm9w+yIE+xbXm5A0Tgj8AQJXxowrEHoI/ALA2 BgIBiyH4AwAEj6E+IOYxzx8AAICFJP4c7Jb90sxuKwAAAKop8fRgt1xygtltBQAAQDVx2RcAAMBC eOADAADEOJ5ECkWipHEdAm52g9ntBAAAiLjaOBdSoqTzA9/NR/AHAAAQEv8Dkl65kRu95LIvAACo XUIIukIMs2rFQCAPfAAAAFhIYnBDfwwQAgAA1AaJB4PaLLitAAAAEN247AsAAGAhRtdzS9atrXdk Z7NbBwAAgLDyCP5K520+rbUk2V67p0jScROGmN0+AAAAhJHbZd/iB5sOHb1ZknT9mCJJWjZsotnt AwAAQBi5Rv7yz5jnWJz+ZsWC7T9HDTa7hQAAAAgb18jfLc7YT7dLavGfa9pKtrFmNxAAAADh4xz5 W/OupA4nd5C0ZpXUYnlL5Z8+Xyvn9Te7iQAAADWlVry0IyTO4O89SRe+U0+SPpd0f0sp7f0uNn1J 8AcAAKwipFjQa+MYiSOdl33nSY3fqCdJmibFXSBJRwyR/jS7hQAAAAgbZ/C3XhrZUJJUuEw6rqUk 6VjpH7NbCAAAgLBxBn95Uif70rwyaYh9sZ2UZ3YLAQAAEDbO4C9OSrIv/SZn8FculZrdQgAAAISN M/hrJG21L30vJQy0L2ZLaWa3EAAAAGHjDP66Sr9LkjaukIY0sicukZqa3UIAAACEjTP4GyD99aUk PSLpfHva37OlY81uIQAAAMLGGfxdIumSt/bmPfKhFHeOJGnZqZIGmd1CAAAAhI0z+Dv6HKnk2mbp D9uky1tJeq5Prwwp6WKzWwgAAICwcb3b99U2kmw2SU2ek6RJi8olPcA9fwAAALWHK/hrPesY+0L9 D1wB36X3mN1AAAAAhE+ia7Hzsg+nri/t2v0/HR0pnR64Is7sBgIAACB8Et2Xr7zSbe2elJ7dzG4d AAAAwirRMOcas5sGAACAcEvMkpokBtwsuK0AAAAQ3eJbtmy5IvBmwW0FAACA6BZf/SoAAAAQKwj+ AAAALITgDwAAwEISJb3cyuxWAAAAICISJb1ndiMAAAAQGVz2BQAAsBCCPwAAAAtJXBvslh3MbioA AACqK7Gr2S0AAABAxHDZFwAAwEII/gAAACyE4A8AAMBCCP4AAAAshOAPAADAQgj+AAAALITgDwAA wEII/gAAACyE4A8AAMBCCP4AAAAshOAPAADAQgj+AAAALITgDwAAwEII/gAAACyE4A8AAMBCEr3W Mxcu3l1YUDhb2tqqrtmNAwAAQHh5BH+2Dx/d4Fx5+sNL7+1gdvMAAAAQTu6XfZeccPkGt9XCid0+ MLt5AAAACCe3kb/lJ+/zyiy6vPBGsxsIAACA8HGN/G08bZ+kTg/9sNC+PqixpDELzG4gAAAAwscV /I3Lluo/8ffDZ5xgX/+/zaOl8hvMbiAAAADCx3nZd+NUqdHsHm5ZDd86+IFW/DbY7CYCAAAgXJwj fxPLpdd7eOTFPZckfWl2CwEAABA2zuBvldT1Yq/M5mdL88xuIQAAAMLGGfxtlM6qlNtF2m52CwEA ABA2zuBvu9S6Um4zKcfsFgIAACBsnA98NMxWXqXcTVLDkKqzLZq9MSepWa+TW4aeCwAAgJrmDP5a ZWt+pdzVUotQasudsEJSacGmr68YEWouAAAAapzzsu9J0uzVXpk5i6XjQqis+KEVUnKHFnEqfXNa iLkAAACoec6Rv/NfVdmVs1I9Mh8olM4OobLJW5R41Wl1lfHaKr3Vo31IuQAAAKh5zpG/IX2lJUP/ dM97+jWpdQgXaDOmSzePqCu1eeRw2T4KKRcAAAAR4Az+4l5NlJb0vu6P/fb1Q78OGyfpsXrB1zWj XB2GSpISL5MWFoSSCwAAgAhwvdv3+I8SpPI3B6b1lHTegManzpJ05egQ6logDahY7JGq8sWh5AIA ACACXMGfLvyiqSSV/SXpq3mFknTlmyFUVbRD6l+xnNBbWhtCLgAAACIh0W35nAHjPipxW+/4zL9D qWq7lOB8jKOjtCPo3Amu/9VmdocAAADUZu7Bn5q99eyHs+fvlCR1HHDev+JDqmqX1MC5kibtDDr3 u3znYpLZHQIAAFCbJXquNr75ZuXl5JWnNwntzR6SVOwV3u0PIRcAAACREBe+66xfvqtuTzlW/rlD cV/HBZk7zDXy13LX/wbIKlaOTpvpM2NY/tvHmt24iJk3tvW3PjN6l3/WyezGRcwv93WZ4it9/yD9 0NzsxkXM1KdOmOQrPess/Z5iduMi5t1XhjznK33DxYkLzG5b5Lzy7oiHfKUvu7bxr2a3LXKemjrq dl/pc25v/6XZbYuc+3657jpf6T88ePT7ZrctcsbOG/zb8KvDVNnS51omVr8WN654zibZbHFB5g4u di6uFgAAAGpMGIO/ZMk1eV++lBQfbK7bH3j/MrtDAAAAarPQnunwK0VyXb4tkFJCyAUAAEAkuI/8 Lfhj3caDXvnJwd9e0cJ9bK9Aah5CLgAAACLBFfztu9zXbffJwVfVXjq0q2XFSobUIYRcAAAARILz sm/5eT4fuSwLvqrUNpLjYTTbAqlLCLkAAACIBGfwN9U+6Uh8k6YeGoVQV19pXsXiulzF9w0lFwAA ABHgDP6+kRR36fKiPbs9ZIdQ17B4rVtlX/xC6t0wlFwAAABEgDP4Wy/p0Q96hHCPXyXthsn27BpJ pZMWKf4ye+L/nnzyXeNcAAAARJLzgY/1Utt7q1nZNf9szbunS9vivwqk69vZ05bmqqtxLgAAACLJ 9cCHdHx1Z3yu90h3af3M+QVKuvGMEHMBAABQ85zxXvMC1at2bemPL5i9MTe52YmnNA85FwAAADXO GfyduFGLq19dXL9+Xinv+c0FAABAJDkv+14sbfzT7NYAAACgRjmDv5FDpf8rNLs5AAAAqEnO4C/u nVb6Z9ASs9sDAACAGuR6wLfDnOHblvU564RuKR4bnGV2CwEAABA2brO75CVJ5dOmeW1gM7uFAAAA CBtX8Pf9uQfNbowk6RazGxAVRpvdgKhwodkNiApnmt2AqDDQ7AZEg0O9zG5BNMilFyRtoxck/W2x XpgxI3x1Oe/5235JdMR+AAAAqDlxjsu6Dz0qKem8I1vHeW5wdWTbk3XI7B6JqLjWPpMzrXWxPaGl z+QMs9sVWXV8Tn1evtPsdkVW3Wa+Ust2md2uyEpJ95V6MNvsdkVWvca+Ukt3m92uyEpt6Cu1ZK/Z 7YqsBmm+Uvfnmt2uyIoLZ2CQ6KztuOXSCZ93NHvvAAAAUIOcwV+zPUpafqTZzQEAAEBNct7zVyAd T+wHAABQuzmDvxZSF7MbAwAAgJrlDP46S1vMbgwAAABqljP4GyUtZrIXAACA2s0Z/F3UUfvvN7s1 AAAAqFGuiWOWDCiNe/dys9sDAACAGuQc+VOvn9JtV5y1oNjsFgEAAKDGuEb+xmn9l5ISDkvx2GCV 2S0EAABA2LiCvzjfG1jrRWMAAAC1W3z1qwAAAECsSHQuHWF2UwAAAFDT4risCwAAYB1c9gUAALAQ gj8AAAALIfgDAACwEII/AAAAC0nUz5LaHGN2OwAAABABcbY4SVe+I53oe4PFZrcQAAAAYeOa52+J 2U0BAABATUusfhVh9eAes1sQUfWe85l8V5HZDYuopo/6TB5TbnbDIqrtfb5SD9xmdrsiq8utvlJz /2t2uyKrx/W+UjMfN7tdkdX3cl+pGyaY3a7IGnaBr9RVr5vdrsg66yxfqYveNbtdkdVpTRgra+IK /tqavWOSpBUZZrcgotJ8J/+Zb3bDIqq17+RF1gr+8nymli0yu12RVeYztdRivVDPZ+p+i/VCC5+p BRbrBd+v3sq1WC/09Jm6x2K9kLIijJW1TNQnkjpK2m72jlUY2cHsFkTMrs8Nsy5oZXbjImbrt4ZZ o5qY3biIWf+zYdbo+mY3LmL+mmWYdUMdsxsXMX/OM8qJv8nstkXOvD+NclKuMbttkTPrL6OcRpeZ 3bbI+Xm9UU7zi8xuW+R8u1U64sTq1yNJyvxNiYq2zhs+wOwWRMxK4+DvzGPNblzEzDMO/s7pZHbj IuYX4+DvguZmNy5iphoHf5ekmN24iLEZB39XmN22yCkwDP6SLdQLmYbBX5qFemGdYfDX1EK98OdW qcOIMFW29Dfm+QMAALAS1z1/P0uneIeC2/9W0xPMbiIAAADCxRX8nS6VJHnlzrtYfeeb3UQAAACE i/+pXppJO4OoZOv01dlF9ZoeObyLK822aPbGnKRmvU5u6T8NAAAAkeM/+NskZQWs4uBbP9kkFRRs /rHvzQ0qEnMnrJBUWrDp6yucdyj6SgMAAEAEJUp63rHygudsCuW73pUaB6xiwlxJjZvl7rFpwe6n kiVJxQ9tkZJblGTbSt9URaTnKw0AAACRlCjpTsfKOB8bdAlUw5y50rArGkt5H/+ojVMvkSRN3qLE q06rq4zXVumtHu0N0wAAABBJAad6uTnQBl9LA25tLKnRjSdLP9kkKWO6dPOIulKbRw6X7SMZpQEA ACCiAgR/dZ44L0AF+zZKl1Ysnyvty5SkGeXqMFSSlHiZtLDAKA0AAAARlSjpD0nSSdIM76le6h+V FKiCHTYlO97N2ia+XEWStEByvKejR2ph+eJhBmkAAACIqES5YjINCBjqVZZyhhrFVSznlktNJRXt kPpXpCX0nqm1w3ynAQAAILISq1tBpxtdy99KR6RL2i4lOB/o6CjtMEhzyLQ5F20CAABAjXEFf29V KxIsLSrcMHeRUm6QpF1SA2dOmn2iaF9pDpfmOxeZ/hkAAKAGueK9q6tTza7rJEldb+wkScVegd5+ gzQAAABEVsCpXkKRNND+6EexlOZMTJNKbL7TAAAAEFnVvufPLnlIfFqjfxa99eUjHewJcc4sm2Sz xRmlAQAAIILCFPw1ul2SNtyTc99rDaVkyTWNX76UFO87zWFimXPxHrM7BAAAoDYLU/Bnd8RZXxdM u1RKkVyPcBRIKfKd5uD2CjmGAwEAAGpQtYO/7HKl13WsdJaWXiq1cB/lK5Cay3eaqUa5r0wxuzUA AAARUe3g7+kNumW4Y6W+tE9Se+nQLsekLRlSB4M0AAAARFa1n/ZtKW1xrmy3R5OpbaQFFUm2BfbL ur7SAAAAEFnVHvk7+g/9eWVCxcpS6UhJ6jtV886xJ63LVXxfo7ToxUVhAABQK1V75K93nHZMq1ie vUwaKEnD4rVulT3tC6l3Q6M0AAAARFS1g7/mg6V3Ju6TtO+tF6VuvSSp3TDZnl0jqXTSIsVfJqM0 AAAARFT1p3q5Zk2W7YcfGjbdmyep+d0Vif9szbunS9vivwqk69sZpwEAACCSqv96t7SnjpS0b2Oe pN7PN7Yn1nuku7R+5vwCJd14hozTAAAAEElhmOS56TN//rE+50C9Zt2GHuFMTH98weyNucnNTjyl ud80AAAARFA43vAR16uXj8R+/YJKAwAAQOS4B3+F3y/dbfPKrzvJ7BYCAAAgbNyCv6n/ya6cnxzN wZ/HZHzMxgcAABCQK/j77P/KfeSXmd1AAAAAhI/zad+91/mK/Qj+AAAAahPnyN87+yR1fuD4NnFm NwkAAAA1xRn8LZQ07LsUs9sTG7jZEAAAxCjnZd/1Ut2JxH4AAAC1mjP42yj16Gx2awAAAFCjnMFf itTV7MYAAACgZjnv+Wu7x+ymhJ3HnXncmAcAAOA28tdXWmV2YwAAAFCznMHf9dKK5Wa3BgAAADXK edm352Uf6IbZyWa3pxZiXhgAABA9nCN/euNELTwry+z2AAAAoAa5gr/kGRdr5tH3L9lndpMAAABQ U5yXfTVOHQ7bkvPEE2rWNsFtg8VmtxAAAABh4wr+nnYs7N5tdqMAAABQM+KrXwUAAABihWvkr63Z TalpzPkMAADgCv62m90UAAAA1DQu+wIAAFgIwR8AAICFEPwBAABYCMEfAACAhSR6rZeuXJKRty8l vfmJJ6SY3bbaye2h42LtN7s1AADAYjyDv9/e+LLEsVxn5E1DzW4dAAAAwso9+Mu8/ju3tYNTp575 Viuz2+fJY6o+5uoDAAAIlds9f6t7fOeV+UOPtWa3DwAAAGHkGvnLOHWPpLiT+h/TNLU4Z/Xc2eXS 7lMXtTS7hQAAAAgbV/B3T6aUcM39zre8ZTz2Zrm23/e22S0EAABA2Dgv+66eIqV8M9H1ht82E79K kt5bZ3YLAQAAEDbOkb+vbNKEszzyRj47VuVfjjO7idGAJ00AAEDt4Bz5+1lqf71X5pj20s9mtxAA AABh4wz+tktnx3llxo2QtprdQgAAAISNM/jLljpUyu0oZZndQgAAAISNM/hLkA5Wyi2V6pjdQgAA AISN84GPFoWqPKPzWqmF2S0MHk9lAAAABOAc+esiTSv0yiz6VupqdgsBAAAQNs7g7yxp3z1emePy pDPNbiEAAADCxhn8nV9Pem1cmVtW+QMvS/XONbuFAAAACBtn8NfyTklPn/DFgYr1A1/2elzSXbzb FwAAoPZwvdt33Ow50op/p3Zu36F59rat/xRK0sB7zW4gAAAAwscV/CVPGzFHUuGyZa7cAdOSzW4g AAAAwifetZg2a3yqR179p39raHb7AAAAEEbx7st3Zbw2qF7FSspJL2fek2B28wAAABBOiR5raTfe eOjvnXkFqY1adUusYo0AAACIWpVCvMRjjzW7TQAAAKgh8dWvAgAAALGC4A8AAMBCEvWzpDbHmN0O AAAARECiTpd05TvSib43WBzZ9uzV+PqutSmm9QsAAECt5HrgY4nZTQEAAEBN454/AAAAC3GN/LU1 uykAAACoaYn6RFJHSdvNboq5RrmvcK8hAACopRJ1kdlNAAAAQKRwzx8AAICFuO75+1k6xTsU3P63 mp5gdhMBAAAQLq7g73SpJMkrd97F6jvf7CYCAAAgXPxf9m0m7TS7hQAAAAgb/8HfJinL7BYCAAAg bBIlPe9YeaGOR175rnelxma3EAAAxDgmVIsmiZLudKyM87FBF7NbCAAAgLBJDLTBzWa3EAAAxBqG +qJYgHn+6jxxntktBAAAQNgkSvpDknSSNMN7qpf6RyWFXCMAAACiVqKkAY6VAYR6AAAAtRqvdwMA ALAQ1wMfbwXx9AcAAABimiveu9rspgAAAKCmcdkXAADAQrjSGwYekxkxmxEAAIhiruBvku8NTj7c zOYRVgEAAISTK/i7wfcGn5ga/AEAACCcuOcPAADAQvze85fYSKprdgsBAAAQNq7g7ye3VFv2hg1z t8n24M1mtw8AAABh5Ar+TvPKKf/yth1jN75odgMBAAAQPsaXfeMvGDL0r//1uMrsFsYeHlEGANQC /JzVVv4e+Gg6NUk3ZZndQgAAAISN36d9u1yo4o/MbiEAAADCxv9UL6dIX5ndQgAAAISN/+CvlbTd 7BYCAAAgbPwHfzsk7vkDAACoPfwHf0ul5ma3EAAAAGHjN/jb/JbUxewWAgAAIGz8BX9/nl0sdTW7 hQAAAAgb1yTPt3nl5P21/JCki81uIQAAAMLGFfy96DN/5ElmtxAAAABh4/+BD/V+x+wGAgAAIHz8 Bn9dn5mTbnYDAQAAED6uy75bvLPimtQ3u3UAAAAIK1fw18HspgAAAKCmxVe/CgAAAMQKw+BvV5nZ TQMAAEC4eQR/5b/dOvTeiuV/1x/0SqHZrQMAAEBYuQd/M44d8r/Zex1rB36/ucvnZjcPAAAA4eQW /L10ymqvzJ0Xjje7fQAAAAgjV/D37S02SWpYsTqsuSTd+73ZDQQAAED4OIO/A9dLavi/Lc9VrD+y a24PyXbTIbNbCAAAgLBxBn+f7pKOWTnWNdtfXP+F50lbp5rdQgAAAISNM/j7QYqf3N4jL+mV+tKP ZrcQAAAAYeMM/hZLw3t7ZbY6W1pgdgsBAAAQNs7gb7fUvVJuZynb7BYCAAAgbFwPfEitKuWmS0Vm txAAAABh4wz+Wkg7K+VmSC3MbiEAAADCxhn8Hebr2Y4fpLZmtxAAAABh4wz+zpLWTPHK/GyNdJrZ LQQAAEDYOIO/CxOlG2d65C24Xoo73+wWAgAAIGycwV/HW6T808ZmOnPyHhqaJ116jNktBAAAQNgk OpcenrlMh15+td+xbdu1yt+2bd2MA5LajTe7gQAAoJYZ5b4ypaq1oIpcwV/qrycvl8rnznXLbTm9 pdkNBAAAQPjEuxabLLgnwTPzvBVdzG4fAAAAwsgt+FPS0//c65roOWXUH1Obm908AAAAhFOix1rH p57atHBTXl5yeotex9Uxu20AAAAIs0TvhE6dzG4SAAAAakpi9asAAADRyeOxWp6rhSSCPwAAYswu t4iOcA6h8w7+Mhcu3l1YUDhb2tqqrtmNAwAAUYJBxFrDI/izffjoBufK0x9eem8Hs5sHAACAcHIP /pZct8w9q3DiB69fFlQlJbOWbioob9T5xMGuiQJti2ZvzElq1utkt2mifaUBAAC4cRtj3Gl2W2ol t+Bv+cn7vDKLLi+8MYg6lryYL0nZ2XOn3NK9Ii13wgpJpQWbvr5ihPykAQAAIIJckzxvPG2fpE4P /bDQvj6osaQxCwJXseCxfKlOh3YJUvb98+xpxQ+tkJI7tIhT6ZvTZJwGAACASHKN/I3Llurfd0eS yuzr/3fm7W+r/IblgWooeNGmhteeFK+DMz7Mt004vIUkTd6ixKtOq6uM11bprR7tZZQGAACASHKO /G2cKjWae1+SK6vhW5dJK34LVMN3+5Xw1KB4qc7p45NV+okkZUyXbh5RV2rzyOGyfSSjNAAAAESU M/ibWC693sMjL+65JOnLQDUslM5qa19sfYk03yZpRrk6DJUkJV4mLSyQQRoAAAAiynnZd5XU9WKv zOZnT9W8ABWUbJb6OVZ6Svtz06UF0oCKpB6pheWLh8l3GgAAsDyPKQSZQbDGuS77SmdVyu0ibQ9Q wV6bdJhjpaH9n6IdUv+KpITe0lqDNAAAAFRH6cKX7r1+USglnCN/26XWlXKbSTkBKmhwqxLqO1Y2 SPXSpe1SgvOBjo7SDvlOAwAAQNWVfjGlSFKxY73k+/Xb89PbDjjRz3vanMFfw2zlVcrd5BzMM5Tm dvnW9rl0nKRdUgPXBvYpGn2lOdy531WF2Z0IAAAQI7Lu8rxEO/P1PZIyVv3Y/IahhoWcwV+rbM2v lLtaahF8A2yvrFH8JZKKvQK9/QZpDkvznYtJgf8bAAAASLtuyfZYn/9EecVS9qNrb4gzKOUM/k5a odmru3lm5iy2j+QFZ/vLa6Wr20oqltKcyWlSiS3OZxoAAACqyPZMtqRGI3q1bixJyni83JX5WfJV BsWcwd/5r6rsylmpHpkPFEpnB/n/53zya5niRjve2+aK7GySzR7o+UoDAABAVfywXNIpt9ZzrE/d L6nJBYcdXPlTofRRvyN9F3MGf0P6LtCSoRNPcMt7+jWpdXBv4S35dFqp1PGmLpKkZMk1jV++lBTv O83h7BLn4vdm9yMAAEBMmCrp1Hudo2mlv0rq/FyaNPD/HvhbZW+P913MGfzFvdrnkJb0vvry4+23 3R2a9dQsSY/VUxAWTtojNfn3aQn21RTJdRdfgZRikOZwu2vxB7P7EQAAIBas2Sw1vcV1JXVuoZRw Z5okpY+/NE9Ltvl+ma7r3b7HfzSqTOVvvplwlKTzslYWStKVo4P4v/NfXig1vuD0Oo6EFu6jfAVS c4M0AABgHo/JlZldOeYslXSu2yjdYkn97BdhVf+SV2Vb6Dv4c7v4euEXTSWp7C9JX82zx35vBvFf Z9+9UAkXvDHCGfupvXRol2MlQ+pgkAYAAICqWSNpuNv6n5KGOFb+1UBa5bucW/Cnc/6+Otk9r+Nn 7yQqoAOPZarl/y53n6MltY20oGLZtkDqYpAGAACAqtkqNXGbkm9HtpTofOVuncOkLb7LuQd/avZW 5kvntbIvd7z0yw3/DuZ//mWr2jzvNazYV853Aq/LVXxfozQAAABUSZHU1m11qaRjXFeB27rfcOfB a2iv8c03Ky8nrzy9SaA3ezjYpkm3NvBKHPZV+bpV3SVJX0i9GxqlAQAAoEoK3OdQtl/1dZu1pblh 8BdfOalRp+N7dQo6Nlu2S81b5LmRpHbDZHt2jaTSSYsUf5mM0gAAAFAl8R5xXPlSSb1c6zlSsu9y QdzU599WKftyt/WEryTpmn+25t3TpW3xXwXS9e3sOb7SAABAxPB4b62SmqM9rrV/CqVUt0cqdrq/ WNeDK/h7eYyPV27svvGLAP/xLp+p9R55fpXWr5eUNPoMP2kAACBKEBrGGM/gb7Gk491GAndKTX2X cwV/Y79/p5V37pc37A70H+/0nZz++ILZG3OTm514SnO/aQAAAKiC9tu0p9wZ7s2Sx1XfzEwp0Ovd pJ+7v3muR17OzUFE/Y8apMf16xdUGgAAAELX9Q+VrelWsbJ1kzye9/jcJnX3Xc79gY+9511T6Lb6 /TGM+AIAAESnYyV971j5XFLr1s68xd9KDQzm1XON/J36izR59oeO7fJve1uSLhcAAIgVHvftMYhT u3Vvnamfz7AP7636QZLzkYqy718tl86u67uca+Tv5zcaSBtPeviQJGn6MW9Lavv9e2bvGAAAACqL GymV/3eeJC1+0CYlnClJKvvwuYtfKJVaGc2r53bP37WnXT1dZY/89OERKrr7dZukq59nKmYAAICo dP5PW1Tw3/bdEjasL5d0crok6eBkSVL9+1MMirnf89f+l9dTpYU935pz7Gs2qf3PbxH7AQAARKfE cfUlbfvxu7XlkjqOdc9rNuFow2LuK3E3nD56loqulaS4655tIAAAENW4yc/KujwzzvkKtyZPut7r qxZn/TvZsJTXGz4Om/HaPUWSdNjkYWbvEAAAAPzo9sEb00slKfGCS+tXpNW5pXH7jv4Keb/ezVZa JknqcazZuwMAAAC/Gt41ZlFmXtMOR6Q7kxLOCVDGK/jbcOVc+8I381873+z9AQAAMYLLz2ZJGRxq CfcHPmR7ucdcKe7mOV2k7AtG7TV7dwAAABBe7sHfpqFj90ttf31p4LIbJX3c7WuzWwcAAICwcgV/ tteP/U3SpauGS/Ve+76FlHXupTlmtw8AAABh5Lrn75QZkppMvMC+duaqa76VPpo5aYTZLQQAAFHH 4x4/bvKLNmt3ShpqkOkK/mZIOnNyS8dqs2/eurVIO0fazG4+AAAAKrvQd/Jn0jc/KZjgT0p9/jr3 rGuGXLbA7L0CAACAT7urVsztgY8BK67zzDvi94cTQ6sNAAAAUc0V3T19V3ylzIdOv9TsBgIAAMCH rlUr5gr+7vGV3We52fsFAAAAHyYa5lzo7y29ga7r1hcAAABiSUd/L/eND7oaAAAAxDy/I3/rd0sD zG4hAAAAwibxf1KXMwwyH/tQYp4/AACAqFW2YV1O4YHUBq2ObhFcgcRbpYtdwd9AafjDZu8EAAAA grH6698POJabnX5WMPGf12XfP6S2Zu8FAAAAgpD3why3td0fTBl1eeA5mnngAwAAICbtuHqOZ0LZ B/8pCFiKV3gAAADEopw7ciQlntCuRbPUPbuzN/1tk/6568XkAMUI/gAAAGLRxGyp7kUXpjrWs6d8 V6Z1718XoBiXfQEAAGLQ5ulS6gujnbGfmt/6dIr0WVaAcgR/AAAAMWi2TbrraI+kXrdKZb8FKEfw BwAAEIOWSB0HeaWd2laaF6AcwR8AAEAMypZ6V0rsK3HZFwAAoBbKk5pWSmwi7Q1QjuAPAAAgBiVJ lSf12yvVDVCO4A8AACAGNZIyKyVulhoFKEfwBwAAEIOOkubmeKWtXSYdGaAcwR8AAEAM6iMVv3TI IylrfLmvp0A8EfwBAADEoKHNpd9u/NvmTMj66prNUvqwAOV4vRuMjXJfmWJ2awAAgJuEW+63acNN 6SOutK9P/FSSdEeg4I6RPwAAgFjU/1pJyllasVooSfFj+gcqliipaKt7ittaodk7BQAAAAP/1/zV XM+UjmOOD1gqUdK0ae4pnmsAAACITsP7/ThrnWMlrcfhA48N4pou9/xZG3f1AQAQw+qdf37Zvorl 64Iswz1/AAAAsSshPcQCBH8AAAAWknio+nUAAAAgRiQmmN0CAAAAhO7CAPmf+U7mgQ8AAIBYtLtq xQj+YAa3p4z3a6/ZrQEAwEII/lBVHtPEME8MAAAR1tVt2Za32yZJ7eoFLEbwBwAAEIsmeqyVZq78 erOSngw48wvBX8zzPwDH8BwAAJZQ97DDzpry9oYxrzcMsCHz/AEAANQKCZeN1s7xgbYi+AMAAKgl RrXXvKUBtuGyL8KEy88AAJgt4eS3NeN4/9sQ/MUe4igAAOBbR2l1gE247AsAAFCL5ATIJ/gDAACo LbZJBwNswmVfi/G4ZswlYwAAapWy6VKbANsQ/NU23BEIAIBV2d7bLLUNsBHBHwAAQCzyvrmvYONP iyUdFaAYwV80KtLDya61qBm945IxAABR5HyfqfXPCFCMBz4AAABqjbjb0wJswcgf3DC2BwBATEsf OzjQJgR/AAAAsWhkpZS0zr2TAxYj+AMAAIhFt1WtGPf8AQAAWAjBHwAAgIUQ/AEAAFgI9/yhZvCm EQAAohLBHwAAQKwq2VcpqUWAIgR/AAAAMenQ1B+2VU6dFaAUwR8AAEAsKrh7bVWKEfzFAG6fAwAA lTxdpdiP4A8AACAWrZgnKeHwTqkhliP4AwAAiEEzJR02rkvI5Qj+AAAAYtB2KenJVqGXY5JnAACA GJQhnV2F2I/gDwAAIBblSp2rUo7LvgDM5PYw+z5tNbs1ABBDGmerWVXKMfIHAAAQg5pJOVUpx8gf UGswIyQAWMnA1VpychXKMfIHAAAQg05J0qyMKpRj5A+1gv8xrwAjYqP85gIAEJXSxzxf+tCEtJDL MfIHAAAQi84+Vxuvm2sLtRgjfwAAADFpbOuJWfe37N66daM4t9QTA5Qi+AMgcfEbAGLO789Lknbt 8kqfFaAcwR/gn/+giJAJAGCSQ/uqVo7gDwgJ0R4AILYR/AGorpAiYmYjBIDw6Hp71coR/AFmcYuC CrTT7NYE3VYCNgCIDq1bV60cwR8Qu0IaRGPEDQAgEfwBCDvCTACIZkzyDAAAYCEEfwAAALHq4O7i UItw2RcAACAmlf8ybW25Gg37d0tJ0v6UuGBKEfwBERNV98JFVWMAAFVQ8tAiScr78ufHe0rS878f Pmhk/YDFuOwLAAAQi15YVLFQdG+mJOng2jcuXx6wGCN/gJfqTGlXe4bTmNgPAKLd+l8kJXUszLDp wOuPVSTmjPtflwDlCP4QI2IyrIrJRgMAYsOvkkbenKiM+7bpj+zmUudluVLJ8xMD3PlH8AfUVjUY ejIuCADm2yZ1uk1Sm6cvK9OCkdLFF81+tljrV/bwX47gD7HJOmNqY9xO0tq8nwCAEGVIZ0iSWg2Z oaUjJcUNTfqv9EeA4I8HPgAAAGJQtmSf4kV9pe32pf4dFfBt8Yz8wXqsM2oIAKjFGuQoyb50tJRh s9/p122zdgcoR/AHxJCYjFtjstEAEP2a5zgG+Vo3KDiQ3cKeKGUHKMdlXwAAgBh0grStYrGDtMO+ lCAFet8bI3+ojRhrAgDUeoM+0m/X15EkdfhL206QJO2RmgYoR/CHaFWuu+u61gjgAADw0OXExXu+ O1eS1F7aZE/cKDULUI7LvgAAALHoxgS9a7/a21VabpOkzSul5gGKEfwBAADEoo53Kf/mWWWSuqdr x4+SMh+U1C1AMS77AgAAxKTDWmfmPdq4XbJkk577Mn3P1nIpeXCAUgR/AAAAseiziTZJubn2NdvG jZKkSxoGKMZlXwAAgBj0zySbj9QzLglUjpE/AACAGDS7XFKi+zheXMMuZ/UNWI7gDwAAIAblS02e 7Rh6OS77AgAAxKC20ilViP0Y+QMAAIhFR3VXu6qUI/gDAACIQce+VLVyXPYFAACwEEb+AAC10iiP NV4QDjgw8gcAAGAhjPwBAADEogt9J38WoFjYgr/yq3Lv7e+2bls0e2NOUrNeJ7f0nwYAAIAq2F21 YmEL/pbleqzmTlghqbRg09dXjPCXBgAAgAgKV/BX5jnEWPzQFim5RUm2rfRNjTBOAwAAQJV0dVsu z94nSS2HxgUsFqbgL+ftNR7rk7co8arT6irjtVV6q0d7wzQAAABUyUSPtcLtc6YV7dp9R3KgYmEI /vKWZ2xaWuaRlDFdunmopDaP3LXR9tE4ozQAACKDmV9Q26UeddQFj62YnvlinQAbhiH4W/pipaQZ 5eow1F7/ZQ9rYUEDgzQAAGo5j6iToBM1qsnTt6z/e8I9AbYKQ/BXJ02SitzH/hZIAyoWe6QWli8e ZpAGAEAI8t0iKeIooJLk22/QT//u5H+jMAR/AwdK0u0bXClFOyTHtC8JvWdq7TDfaQAARCOuESNW de24Wd/e6n+bGpnkebuU4Hygo6O0wyDN4beDzkWbOV0FAECYVOc6r1vZLK0JrSwgSYdvDvjJqZHg b5fkuqMvTdppkObwSL5zMcmMfgIAwA8GAhE74gLP/Vwj7/Yt9gr09hukAQAAIIy2SsUBNqmRkb9i Kc25kiaV2OJ8pgEAUHU8Rwt4y9gotQ2wTY0Ef5JckZ1NstkDPV9pAABYCREratKB58tMCv6SpQLn Sr6UFO87zWGma/EkU7oKABD7TAurwvSEB7EgQlXkuWrbs+G9HZKODlCsRoK/FMn1CEeBlGKQBgAA gCoa4XOSlNQzAhSrkeCvhfsoX4HU3CANAICowPO8iEXxZb4S70wNUKxGgr/20qFdLStWMqQOBmkA AJijOtEekSKihK/gL/2WQYGK1Ujwl9omQwvOsS/bFkhdDNIAAABQRacf9EqIS+vSL/CNdTXztG/f qZp3jn1xXa7i+xqlAQAAoGpur1qxGpnkWcPitW6VffELqXdDozQAAABEVM0Ef+2GyfbsGkmlkxYp /jLDNAAAAERUDU3yfM0/W/Pu6dK2+K8C6fp2xmkAAACIpBoK/uo98vwqrV8vKWn0GX7SACC8eA4T APyrqde7pT++YPbG3ORmJ57S3G8aAAAAIihswd8Er/W4fv0qbeMrDQCiBaOGAKygZh74AAAAQFQi +AMAALCQmrrnDwBqG4+rwlNCywWAqEHwB8BCovSuPrdm5WiD2a0BUMtx2RcAAMBCGPkDENuidDAP AKIVwR8AVEl1bvKL5og1mtsGIBwI/gCg1qnBAK7mHmxxq3mP1oW9TwA4EPwBQOyLluE6nnkGYgDB HwDrChAyEckAqI0I/gDUZqaNiEVz4Bi5TonmXgCsi6leAAAALISRPwAxJlpub7OIGrw0zpEEzEHw ByD6XeW6SEGIEHbEYIDFcNkXAADAQhj5A4CYUOY2QsfwHICqI/gDgJoX9kurId1rx4VdAG647AsA AGAhBH8AAAAWwmVfAEBkMOczEBUY+QMAALAQgj8AAAALIfgDAACwEII/AAAACyH4AwAAsBCCPwAA AAsh+AMAALAQgj8AAAALIfgDAACwEII/AAAACyH4AwAAsBCCPwAAAAsh+AMAALCQRLMbAAAAUD2j 3FemhJYbQs2hFg7TLu0Ic9UEfwAAABFQnSA0nAj+AAAAakK0RHteuOcPAADAQhj5AwAAtUuUjrhF C4I/AAAQcza5BXgRfIYjnM9/eIWokYtYCf4AAICFmfY8r2kI/gAAAMIhRuJIgj8AAACHGAngqoPg DwAAoEpiM1JkqhcAAAALIfgDAACwEII/AAAACyH4AwAAsBCCPwAAAAsh+AMAALAQgj8AAAALIfgD AACwEII/AAAACyH4AwAAsBCCPwAAAAsh+AMAALAQgj8AAAALIfgDAACwEII/AAAACyH4AwAAsBCC PwAAAAsh+AMAALAQgj8AAAALIfgDAACwEII/AAAACyH4AwAAsBCCPwAAAAsh+AMAALAQgj8AAAAL IfgDAACwEII/AAAACyH4AwAAsBCCPwAAAAsh+AMAALAQgj8AAAALIfgDAACwEII/AAAACyH4AwAA sBCCPwAAAAsh+AMAALAQgj8AAAALIfgDAACwEII/AAAACyH4AwAAsBCCPwAAAAsh+AMAALAQgj8A AAALIfgDAACwEII/AAAACyH4AwAAsBCCPwAAAAsh+AMAALAQgj8AAAALIfgDAACwEII/AAAACyH4 AwAAsBCCPwAAAAsh+AMAALAQgj8AAAALIfgDAACwEII/AAAACyH4AwAAsBCCPwAAAAsh+AMAALAQ gj8AAAALIfgDAACwEII/AAAACyH4AwAAsBCCPwAAAAsh+AMAALAQgj8AAAALIfgDAACwEII/AAAA CyH4AwAAsBCCPwAAAAsh+AMAALAQgj8AAAALIfgDAACwEII/AAAACyH4AwAAsBCCPwAAAAtJjOR/ Zls0e2NOUrNeJ7c0e7cBAACsKZLBX+6EFZJKCzZ9fcUIs/cbAADAkiIY/BU/tEVKblGSbSt9U0R/ AAAAJohg8Dd5ixKvOq2uMl5bpbd6tDd7zwEAACwocg98ZEyXbh5RV2rzyOGyfWT2jgMAAFhR5IK/ GeXqMFSSlHiZtLDA7D0HAACwoMgFfwukARWLPVJVvtjsPQcAALCgiAV/RTuk/hXLCb2ltWbvOQAA gAVFLPjbLiU4H/LoKO0we88BAAAsKGJP++6SGjhX0qSdbnkjC52LNrM7BAAAoDaLWPBX7BX87XfL K8x3LiaZ3SEAAAC1WVykhtq+fFfdnnKs/HOH4r6Oc+YNcwV/LXf9b0BoFcewlaPTZvrMGJb/9rFm Ny5i5o1t/a3PjN7ln3Uyu3ER88t9Xab4St8/SD80N7txETP1qRMm+UrPOku/p5jduIh595Uhz/lK 33Bx4gKz2xY5r7w74iFf6cuubfyr2W2LnKemjrrdV/qc29t/aXbbIue+X667zlf6Dw8e/b7ZbYuc sfMG/zb86jBVtvS5lpF72ldyRXs2ycYFXgAAgIiL2GXfZMk1tV++lOQWdt5e6lx81+wOAQAAqM0i FvylSK6LuwWS+0Wcs12L75ndIQAAALVZxC77tnAf+SuQrHMfEwAAQPSIWPDXXjq0y7GSIXUwe88B AAAsKGLBX2obyfGomm2B1MXsPQcAALCgyD3t21eaV7G4Llfxfc3ecwAAAAuKXPA3LF7rVtkXv5B6 NzR7zwEAACwocsFfu2GyPbtGUumkRYq/zOwdBwAAsKKITfUiXfPP1rx7urQt/qtAur6d2TsOAABg RRF8w0e9R7pL62fOL1DSjWeYvd8AAACWFMGRP6U/vmD2xtzkZieewiR/AAAApohk8Ke4fv3M3l8A AABLi+BlXwAAAJiN4A8AAMBCCP4AAAAshOAPAADAQgj+AAAALCSiT/sGZV0ds1sQMZuMs/4uMbtx EbPOOGvVHrMbFzEbjLOWNzK7cRGzxThrSZLZjYuY7YY5tkVmty1yMg1zDlqoF7INc0os1At7DXMK LdQLeZJy/wpTZVujMfh7zewGRIXnzG5AVHjM7AZEhfvMbuOmuNYAABW/SURBVEBUuM3sBkSDsv+Y 3YJoUEgvSMqmFyRts1gvLF0avrqiLfhrIUllkhKCLVEmKT4uhI3jgr3UXW4LoR228lDbER8npfrO bt2gosKa+99rsBdC3riF7/y2Zfb/3Rb0h7RmPwtBb2wrD6HRzkPne+bzuDaq0c/CobgQNg6pF6r2 wWnqMzuhTagVxvaXSLrP7Doh90Jsf4k09pmd5OiFkP732P0SaegzOyWaPgsR+BJp4DO7fhvV5Ccx 6r5EUlsEWSIYzeJsYawtTJZfI2l6oyC37l0ujR8W5MY3LJH+744gN37jDanLlCA3XnKDpNmpwW1c 3lvShEF+t/n9NkkLg/zk7R8k6bXeQbb1knXSddcFufGEKdIJk4LceNZdUtziIDfOHybpjeP9bvPD g1K9OUFWmHWWpA+OCnLrf2VIt10S5MaPTJOGBDsc++2jUtrMIDfO+Jekjzv73eaz8VLzH4KscMPF kr5uG+TWw/KlB0cGufGds6URDwW58ZQJUutvg9x47aWSvmvpd5vJr0uHfxpkhcuulTSjYZBb1+yX SNePgtx48Y2Sfqvvd5uX3pd6TA6ywjm3S1oU5G9M0WBJr58YZNU19yUy824pPsDVvCe+kk56McgK Q/oS2XW2pA+PDHLrkZnS7aOC3DjsXyL3TpfOCPbySEhfIv/8n6Rv2gS5tblfIjctlC68O8gKa/BL 5ESb9OzQIDe+/k9p1O1BbhzSl0jweOADAADAQgj+AAAALITgDwAAwEII/gAAACyE4A8AAMBCCP4A AAAshOAPAADAQgj+AAAALITgDwAAwEKi7fVukpSQJinY16SogU2qE+zG9dKkoF8Qn5Rm+P61yhJD anSaAnZ9YlqwlQVZoUv9NKluKL1QL9iN64S70XXSpORg64tLUwhv40kNpReS06SUYDeuG8oHJ5hG h1RhfJpC+KOugUI4fVJCORohNTohiEYnpUn1g6pN0fMlUjeURgfzJRJSL4T0JRIXRV8igY5ccqgV Bn3yxkfJl0idNKN3mrmk1Ni3UminT6pC6IWwf4mE/KNeU18iioovkeBF4+vdAAAAUEO47AsAAGAh BH8AAAAWQvAHAABgIQR/AAAAFkLwBwAAYCEEfwAAABZC8AcAAGAhBH8AAAAWQvAHAABgIQR/AAAA FhJ97/a1LZq9MSepWa+TWwax8dbpq7OL6jU9cniXYKounDN3174W7XsPCeZ1fQW/Lt1eUL/JcUM6 +N2s/Krce/u7rZfMWrqpoLxR5xMHJwTaeNsYt6y0D+kFeiGaeyHITqAX6AV6IQK9EFInmN8LIXUC vRBaL1RN1AV/uRNWSCot2PT1FSMCbXvwrZ9skgoKNv/Y9+ZAL8GWFry6T9L27XN/GNsu4Mbfv18s ad++TV+NvNLf8OiyXI/VJS/mS1J29twpt3QPsHEmvUAvxEwvBNsJ9AK9QC/UfC+E0gnR0AshdQK9 EFIvVFG0XfYtfmiFlNyhRZxK35wWaOMJP9qkxl2axUkLHiwJtPWsJ/dJTTskSeseKQi08ZuTiqXU I9Kk8q9ftBlvV/aZx+qCx/KlOh3aJUjZ988LsLHxwaQX6IUo64VgO4FeoBfohZrvhZA6IQp6IaRO oBdC6oWqiraRv8lblHjVaXWV8doqvdWjvd9t58yVhl3RWMr7+EdtnHqJ/5o3vCz1Gt1WtllvFWb/ 737/G8+YJh17bQdp1zvzNbvHcKPtct5e475a8KJNDa89KV4HZ3yYb5tweAt/GytTutY5qOsRhdML 9EJ09UKwnUAv0Av0QgR6IZROiIJeCKkT6IXQeqGqoiz4y5gu3TxUUptH7tpo+2ic342/lgbcKkmN bjw4XT+N8n9l/p1DGnB3nBQ3rOkDtkXZzf1tW/q+NOAeSWo57v0v9P4QXxfk85ZnbFpa5pH03X4l PNVWUp3Tj721pPSTW/xtrAypaxN6gV6I/l4IqhPoBXqBXohML4TUCSb3QkidQC+E3AtVFmWXfWeU q8NQSVLiZdJCv6Ot+zZKl1Ysnyvt8z8q+vcq1fmP/XAfe5w0z+/Gy3NV7z8Vy5e0V+4yXxstnfDp Yq/Ds1A6q619sfUl0nybv42VKbWhF+iFGOiFoDqBXqAX6IXI9EIonWB2L4TUCfRCyL1QZVE28rdA GlCx2CO1sHzxMD/b7rApuXXFcpv4chX5rfkPqa/jHs8bMtXY78Z/S50dGyecsE0Le/nYqE6aJBW5 HaKSzVI/x0pPaX9uuvHGKslV4/r0Ar0QA70QVCfQC/QCvRCZXgilE8zuhZA6gV4IuReqLLqCv6Id kuOqdkLvmVrr72imnKFGjpHb3HKpqd+qF0mnOJZbBnosPE9q7VzpIG32tdHAgZJ0+wZXyl6bdJhj pWGAjY0DeXqBXoiyXgiqE+gFeoFeiEgvhNQJZvdCSJ1AL4TaC1UXXcHfdinBeddmR2mHv4073eha /lY6It3fxoXZ0pFBtyNZynau7A7QDpcGtyrBGZtvkOr5bVKG1Db/q7UZ+xt17jPQ/S4BeoFeiLJe qGIn0Av0Ar1QA70QUidEXy+E1gn0gt9eqLroCv52Sa7pd9KknUGUKS0q3DB3kVJu8LvVNik5uWzW H1v3pbbtdVqg0dO20sbSuhUrK6T95UHdG5nm9peH7XPpOL9bZ0rrry2WlJ099+M73GadpBfohSjr hSp2Ar1AL9ALNdALVemEKOqF0DqBXvDbC1UXXcFfsdfR3B+4yK7rJEldb+zkd7NsqcnOZzZJysv7 67P/DPJfaZ+3yvOmXGlf/u4vSftTQ9wT2ytrFO//YfJMaZPUPDWrSNp570M96AV6IVp7ofqdQC/Q C/RCuHqhCp0Qpb0QRCfQC357oeqiLvhLc66kSSW2YF6+JSlpYGv/GxRLun+34prV2VWm/c8VnOV3 62an/Kyv9l2WLu3+eIYkBdkMp/9v796joyjvMI5/JxeSIEIIJGBJUECiXGyVi1CRRqgC2mpFECLV 1hZF0YNIbQta8GirrYqlFK0oYJUqmouIFzhar9CiBQuBAp4AAWqAQLjkRoBcINn+kexmN8Dszm62 O5t9Pv/wzuw778w8ew7nl5l9Z/Y9tx0mp5r2KQLjhvGdoHTFyrrTTy903fVXCkrBZikEHIJSUApK ocVS8DsEu6XgSwhKwTQF/9mr+MM9Nwc4vH+b8ddEtU8s+GrJ24+bvlSvCoroeHtGG+o2LilmcX/z V/BNLtjj+PTTxE6HK2FAHiRYOofSrI/rMH7u5X0ztZ352XCApMmDHnUcf2uyUlAKdk0hsBCUglJQ Ci2bgtUQ7JiCbyEoBW8p+MlexV88ND2r5xjEeb93nvgLgF0zSx95wVspnDi/IxB9Zd/7y+rfnGV+ IL9f8CWUl0P0rX3yfDmOJtXZ79dCj/u93ZVf0NT8zugPWev6MpWCUrBbCoGEoBSUglJo0RT8CMF+ KfgaglIwTcF/9nrIcwIccy1UWqigL/4Blabv9osHpjQ+rKfdT2BjrfmAbWc9M7pbfFzXMfMmlUEK vlt/3/JaOt07z9IvMjOg5KhSUAq2TcH/EJSCUlAKLZuC3yHYKAW/QlAKZ6TgP3td+eviXspXeknx cD1Jzik29Ia82006twNcP5HsCzVHvD0z51LnTO9S8PLSQDfHnlsPHcePibV24t2BcueDh5SCUrBh Cv6FoBSUglJo6RQshWDLFPwMQSmckYL/7FX8dYfTxc4nKhaB6Y32p3Yx3fUK5fOgwqxzKsS7Zgal GA6qfD6ondDL176HHz1A9NiJcVZPPNZwEK8UlEI4pGAlBKWgFJRCi6dgKQQ7puBvCErhjBT8Z6/i r123Itbd3NB2rAPTa6Fdd/GNa2Gfl1NJizld7Xo58wEH5u9rqdsGlzXeEa/4Nwzx8fhrfneArrN9 K/w/2c3gAc6FvQ6iXIW8UlAKNkvB3xCUglJQCi2fgqUQbJiClRCUgnkK/rPXb/4Y2vQK5R1lRA01 69sXNrrefZfn5YHcsVfAOrfOKZ3Mekc/N2fO5sb2Z3Wkpfl4+B8V0u2PPn6Z0atWveJa+Ar6NFXy SkEp2CsFf0NQCkpBKQQhBSsh2DAFKyEoBS8p+M1mxd/IKHZsbWi+BVeazse50mC/80ebqzfBcNOR R8Br+xqaB5bBCPPj+C5knQagOBcyfTx6x/vw4Pk+dr4qgcLlje3dy2GMUlAKtk3BvxCUglJQCsFI wUoI9kvBUghKwUsKfrNZ8Zc2EsfcfKD2pa+IusO0b0oGvPJiBVCxZD70G2Tae1g6Nb9aWQOn/v7L apLGmh/HqDZsf6IY6v/16+NcerWPR7+pmJQu5W7MOseNgqWLSoCT2bPq6Ov2EHGloBRsloJ/ISgF paAUgpGClRDsl4KlEJSClxT8ZjgCH6MlnZxZCOmpVdsqYer15n2PPXQI6NC5pBxImdvRvHfRrAow LjAO1kPCkxd7OY5PFoCRfP7hSkh5NtGk4y92MeuqxvaKVzw/i15h0pnaWbvASOpYUgZ0e8r9zxal oBRsloLPISgFpaAUgp6ClRBskYKlEJSClRT8Ff1Y4GO0pNihuw9T8t/9tcRN8fZlxl214yjUlFUD V85J9NK7/aDtZVBZ6YBej1/k7Th6tss/zYmyWrh8dpJZx7+XcrXzHv/qXZ6fRWWadCZ6eHmhg6rS ajCGz/a4/KsUlILNUvA5BKWgFJRC0FOwEoItUrAUglKwkoK/7DXbF0h6Yt3q3WXxyYOv8/6oxM5P b1y7s7SmbXK/Ed6u3gDd5639ck+Zkdhn2GAf3r1349Urdu+t6dT7mit8f1HfQWun2vaBie8VHj6a kPztET2UglKwdwr+hKAUlIJSCE4KVkKwWwoWQ1AKXlLwk91u+4qIiIhIENlswoeIiIiIBJOKPxER EZEIouJPREREJIKo+BMRERGJICr+RERERCKIij8RERGRCKLiT0RERCSCqPgTERERiSAq/kREREQi iIo/ERERkQii4k9EREQkgqj4ExEREYkgKv5EREREIoiKPxEREZEIouJPREREJIKo+BMRERGJICr+ RERERCKIij8RERGRCKLiT0TC1q2GYRjGF2esPxhtGIZxReNSguEmJqXvHUsq3frOMAxjxlnG7mF4 SPjWoKnLTwVwrH82DGNNqAMTEUHFn4iEvawz1uTWn7Nz3ZH81+9Oe7Iei6oPbnxxfPe/hfpcRUQC p+JPRMJcbl3zNTletqiYParKnz0V//TuUJ+siEjAYkJ9ACIigTm0+vueK/Z/eUafMYkN/zqKCg4B fDr5DR9GHpnibFXtKywBWNLz4VCfrohIgFT8iUi4y2pW/OU6zujybD9Xs/A3bzjgzbtGeh/40Qy3 hW1z3gGeuPOCUJ+uiEhgdNtXRMJaKjSfiJENqefe4MLXXwN4yuqO+q/4I3DyzVCfsIhIgFT8iUhY mwhlH3msKVwPE8w2+fFtwBrrv/p7MB34ONQnLCISIBV/IhLWrm/ffL5vDhi3mm5zH1CbZ3lXUVcB e0N9wiIiAdJv/kQkrMWPXco7VQlua3JgWJrpNpcBHLK+r0uACteS4x/v7Nm/73hqauqwcZ2bd93y 0rr9J3qnD/lZx1AHJCLSjK78iUh4mwjHV7kt79kAE8036XAeUG59Vwbgmu+xYeA189/LO1JV8Plr 9170pGuOSZphPEzNnd95Ie/wic05D/XKPdtAL0cZRvSroU5ORCKUij8RCW/XdfK875sDUePNN9l7 Akiyvqt8oHtj+/OMTU0fnJh9j3u/4xlLnc2yzBVnjrPobgfRS+8MaWwiErl021dEwlvMuEWsqjzf tZwNGV2LTDfZCE1VnO8c64FxDe2KSSeB/t9Niy3avBZYfMuYpn5T1kP/b0flbzkF9VNHnddsnIX3 O4h+7bZQBycikUrFn4iEucxFVL97u3OpYLPXu75VDwOdLre8oxe2Q/fGecQvFEO7N24EYNstBbC4 qfjL/obBCwcCO6d+BodWNZt6/Pw0iFk2wcedioi0NN32FZEwl9HV/b5vNsSMM+1fMXkHkGn1f7/t dzwA7d9u/It5OfDXhtqP/h8ajVcTG3zDyDUDAdLf743HJwB/ngax2ar9RCRkdOVPRMJc1IQFfFTq /AlfDozsfO7OBwq+euYo0NaX17Q9ucTZqi7av98B3XIGNizXb4UurufJ9Oz7NUfctuu4rHH2cdvZ P8XjE5j3ELTJ+VGoQxORCKbiT0TCXeYCTr19V0M7f+tZ7/r2b75iSTcfBm72QOeY6Y+1a2wevwUG Nn2S+jX1bh3v7epsDQA8XjY399cQ99YPQx2ZiEQyFX8iEu6Gdt9LVmPxlwOxY71uEfsXf6Zb1BWX Oou/9p5veTvo2bHpAJq/Zu4Pj0DciutDm5eIRDj95k9Ewp0xET4vbmhnwyivz1W+bt3d/uzHseyS z8+6/uWtnivSmw7N84MnHgEcF4YyLBERXfkTkbCXOZf63GkAW/PPPtd3TKKzFZPSe3QPH8ddneFq Htn5yVPVVI/f4LmtY9/O7VtWF3hultzhHOM9/QFA7ZR/GoiIhIyKPxEJewN6F5A1DSAH4s42meLZ fgHuIjl52O1Dj1L66uOuVftWfbajoOosfVPPNcgHcMnu03yxeEqoExORSKbbviIS/jLhX4UAOXB9 +yDtpNdsYKVzaffN3afmbmmo/S5I8egYfe4xBnwxA5hZHNK0RCTCqfgTkfCXCY4cYPNOr094DsAU AzY1zupd0/9dAJKG3fXsmv0DfBxhyKedHusB5Q+ENi4RiWwq/kQk/PW9rOE5z9mQcGPQ9pLQBRwV APz3pmqImbRsd8naxQ99z9f/SId/nEjbhUDuSh+3EBFpeSr+RKQVyIS8nZADPzwv8NHOJQ0oBWDe Meizc9mknpa2/+35wOhJwP0nQhaViEQ8FX8i0gpMBLLZsCeYd30hHigHIAuiVjZN/PWxlGuY5Pun JNg7JyQxiYig4k9EWoVeg+BNcqDdDUHcyyngJEDlUUhvuup3Ot/KKClzgQUbQhGTiAgq/kSkdciE /C05cFNCEHdSR2PxVwG4TSrOPWppmJ9fA3VT6v7vGYmIACr+RKR1mGDAjMLg3vWlA1AMkGzAtlrn 6h0PgMe7fb15KQ42zQ9FTCIiKv5EpHVIGwafQYfRwdxJMrANIG4wnHywYWXN88OOArXbfB8n/TfA o9+EJCgRERV/ItIqZAJwc1ww93EBkHsK4B5g4eXz3/lo4fSe00roCYye+bLPA83sAyenhiwrEYls Kv5EpFUYHw1BvuvLCKDw3jrgzlHAf2aMHX3fggPELs0CDjzzqs8DtVlkwIdZIQtLRCKaij8RaRW6 jAA6XhvUfYyMB/66C4h6+w7X2tEbfzL4GeMcmxgxcW3OsvrqKcD0stBEJSIRznCE+ghERMLRxte3 79qXlHrtuIEAebkl6UOGh/qYRER88D/iOr6kRrkCVgAAACV0RVh0ZGF0ZTpjcmVhdGUAMjAyMC0w OC0yN1QxODo1MToxOCswMDowMIokqFsAAAAldEVYdGRhdGU6bW9kaWZ5ADIwMjAtMDgtMjdUMTg6 NTE6MTgrMDA6MDD7eRDnAAAAAElFTkSuQmCC "
       id="image73" />
    <g
       style="stroke-width:1.24385"
       transform="matrix(0.80426375,0,0,0.80365206,498.26696,-115.7494)"
       id="g996">
      <path
         sodipodi:nodetypes="ccccccc"
         id="path41"
         d="m 88.469175,179.58117 c -0.473869,0.41346 2.068429,1.53122 0,0 -4.198121,0.30714 -15.537762,-1.40426 -24.689256,-0.20745 l -8.336677,0.95424 -20.100237,3.90252 -3.682474,1.43717 -1.200514,0.42833"
         style="fill:none;stroke:#000000;stroke-width:1.82223484;stroke-linecap:butt;stroke-linejoin:miter;stroke-miterlimit:4;stroke-dasharray:none;stroke-opacity:1;marker-end:url(#TriangleOutM)" />
      <path
         style="fill:none;stroke:#000000;stroke-width:1.82223;stroke-linecap:butt;stroke-linejoin:miter;stroke-miterlimit:4;stroke-dasharray:none;stroke-opacity:1;marker-end:url(#TriangleOutM-3)"
         d="m 107.22227,184.87705 c 0.21404,2.05851 -2.96088,2.99914 0,0 3.93486,6.18108 16.10702,13.74839 24.3643,29.11688 l 7.20922,13.39183 16.95719,38.43616 3.54262,9.63215 0.58024,1.88963 0.33813,1.1012"
         id="path41-7"
         sodipodi:nodetypes="cccccccc" />
      <path
         d="m -74.675255,288.93878 a 88.792259,31.941603 0 0 1 -88.715545,31.94159 88.792259,31.941603 0 0 1 -88.86884,-31.8864 88.792259,31.941603 0 0 1 88.562,-31.99668 88.792259,31.941603 0 0 1 89.021855,31.83111"
         sodipodi:arc-type="arc"
         sodipodi:open="true"
         sodipodi:end="6.2797296"
         sodipodi:start="0"
         sodipodi:ry="31.941603"
         sodipodi:rx="88.792259"
         sodipodi:cy="288.93878"
         sodipodi:cx="-163.46751"
         sodipodi:type="arc"
         id="path1703"
         style="fill:none;stroke:#000000;stroke-width:1.82223484;stroke-miterlimit:4;stroke-dasharray:7.28893937,1.82223484;stroke-dashoffset:0;stroke-opacity:1;paint-order:stroke fill markers" />
    </g>
    <path
       id="path1815"
       d="m 598.42664,219.43493 c 0,12.71414 0,12.71414 0,12.71414"
       style="fill:none;stroke:#000000;stroke-width:1.465;stroke-linecap:butt;stroke-linejoin:miter;stroke-miterlimit:4;stroke-dasharray:none;stroke-opacity:1;marker-end:url(#marker1993)" />
    <g
       id="g1244"
       transform="translate(0,2.5687497)">
      <g
         style="stroke-width:3.1949"
         id="g39-5-3"
         transform="matrix(0.31311855,0,0,0.3128804,230.70282,-29.343901)">
        <path
           id="path1729-6"
           d="M -196.88021,361.22975 H 219.6209"
           style="fill:none;stroke:#000000;stroke-width:4.68051937;stroke-linecap:butt;stroke-linejoin:miter;stroke-miterlimit:4;stroke-dasharray:14.04155811,4.68051937;stroke-dashoffset:0;stroke-opacity:1" />
      </g>
      <g
         transform="matrix(0.31311855,0,0,0.3128804,361.11704,-29.343901)"
         id="g39-5-3-7"
         style="fill:none;fill-opacity:1;stroke:#a1a1a1;stroke-width:4.68051937;stroke-miterlimit:4;stroke-dasharray:14.04155811,4.68051937;stroke-dashoffset:0;stroke-opacity:1">
        <path
           style="fill:none;fill-opacity:1;stroke:#a1a1a1;stroke-width:4.68051937;stroke-linecap:butt;stroke-linejoin:miter;stroke-miterlimit:4;stroke-dasharray:14.04155811,4.68051937;stroke-dashoffset:0;stroke-opacity:1"
           d="M -196.88021,361.22975 H 219.6209"
           id="path1729-6-5" />
      </g>
      <g
         transform="matrix(0.1734162,0,0,0.22243798,464.02665,3.3265929)"
         id="g39-5-3-3"
         style="stroke-width:5.09157">
        <path
           style="fill:none;stroke:#000000;stroke-width:7.45913248;stroke-linecap:butt;stroke-linejoin:miter;stroke-miterlimit:4;stroke-dasharray:22.37739744,7.45913248;stroke-dashoffset:0;stroke-opacity:1"
           d="M -196.88021,361.22975 H 219.6209"
           id="path1729-6-56" />
      </g>
    </g>
    <g
       id="g1244-2"
       transform="translate(0.04820171,124.54167)">
      <g
         transform="matrix(0.31311855,0,0,0.3128804,230.70282,-29.343901)"
         id="g39-5-3-9"
         style="stroke-width:3.1949">
        <path
           style="fill:none;stroke:#000000;stroke-width:4.68051937;stroke-linecap:butt;stroke-linejoin:miter;stroke-miterlimit:4;stroke-dasharray:14.04155811,4.68051937;stroke-dashoffset:0;stroke-opacity:1"
           d="M -196.88021,361.22975 H 219.6209"
           id="path1729-6-1" />
      </g>
      <g
         style="fill:#a1a1a1;fill-opacity:1;stroke:#a1a1a1;stroke-width:5.63899;stroke-miterlimit:4;stroke-dasharray:16.917, 5.63899;stroke-dashoffset:0;stroke-opacity:1"
         id="g39-5-3-7-2"
         transform="matrix(0.31311855,0,0,0.3128804,361.11704,-29.343901)">
        <path
           id="path1729-6-5-7"
           d="M -196.88021,361.22975 H 219.6209"
           style="fill:#a1a1a1;fill-opacity:1;stroke:#a1a1a1;stroke-width:4.68051937;stroke-linecap:butt;stroke-linejoin:miter;stroke-miterlimit:4;stroke-dasharray:14.04155811,4.68051937;stroke-dashoffset:0;stroke-opacity:1" />
      </g>
      <g
         style="stroke-width:5.09157"
         id="g39-5-3-3-0"
         transform="matrix(0.1734162,0,0,0.22243798,464.02665,3.3265929)">
        <path
           id="path1729-6-56-9"
           d="M -196.88021,361.22975 H 219.6209"
           style="fill:none;stroke:#000000;stroke-width:7.45913248;stroke-linecap:butt;stroke-linejoin:miter;stroke-miterlimit:4;stroke-dasharray:22.37739744,7.45913248;stroke-dashoffset:0;stroke-opacity:1" />
      </g>
    </g>
    <g
       id="g1761-9-3"
       style="stroke-width:1.51302"
       transform="matrix(0.66151104,0,0,0.66035732,113.10434,-59.222508)">
      <path
         d="M 112.65417,197.01694 A 13.749128,13.486838 0 0 1 98.905345,210.50378 13.749128,13.486838 0 0 1 85.155916,197.01753 13.749128,13.486838 0 0 1 98.904144,183.5301 13.749128,13.486838 0 0 1 112.65417,197.01576"
         sodipodi:arc-type="arc"
         sodipodi:open="true"
         sodipodi:end="6.283098"
         sodipodi:start="0"
         sodipodi:ry="13.486838"
         sodipodi:rx="13.749128"
         sodipodi:cy="197.01694"
         sodipodi:cx="98.905045"
         sodipodi:type="arc"
         id="path87-3-1-6"
         style="fill:#fcfcfc;fill-opacity:1;stroke:#000000;stroke-width:3.93383;stroke-opacity:1;paint-order:stroke fill markers" />
      <text
         transform="scale(0.95710175,1.044821)"
         id="text1985-0-3-3-5-2-0"
         y="194.99959"
         x="91.675888"
         style="font-size:17.0802px;line-height:0.55;font-family:sans-serif;letter-spacing:0px;word-spacing:0px;fill:#000000;stroke-width:0.400316"
         xml:space="preserve"><tspan
           style="font-style:normal;font-variant:normal;font-weight:normal;font-stretch:normal;font-size:17.0802px;font-family:sans-serif;-inkscape-font-specification:sans-serif;fill:#000000;stroke-width:0.400316"
           y="194.99959"
           x="91.675888"
           id="tspan1983-2-7-6-6-7-62"
           sodipodi:role="line">C1</tspan></text>
    </g>
    <g
       transform="matrix(0.66151104,0,0,0.66035732,113.01727,63.923164)"
       style="stroke-width:1.51302"
       id="g1761-9-3-6">
      <path
         style="fill:#fcfcfc;fill-opacity:1;stroke:#000000;stroke-width:3.93383;stroke-opacity:1;paint-order:stroke fill markers"
         id="path87-3-1-6-1"
         sodipodi:type="arc"
         sodipodi:cx="98.905045"
         sodipodi:cy="197.01694"
         sodipodi:rx="13.749128"
         sodipodi:ry="13.486838"
         sodipodi:start="0"
         sodipodi:end="6.283098"
         sodipodi:open="true"
         sodipodi:arc-type="arc"
         d="M 112.65417,197.01694 A 13.749128,13.486838 0 0 1 98.905345,210.50378 13.749128,13.486838 0 0 1 85.155916,197.01753 13.749128,13.486838 0 0 1 98.904144,183.5301 13.749128,13.486838 0 0 1 112.65417,197.01576" />
      <text
         xml:space="preserve"
         style="font-size:17.0802px;line-height:0.55;font-family:sans-serif;letter-spacing:0px;word-spacing:0px;fill:#000000;stroke-width:0.400316"
         x="91.675888"
         y="194.99959"
         id="text1985-0-3-3-5-2-0-8"
         transform="scale(0.95710175,1.044821)"><tspan
           sodipodi:role="line"
           id="tspan1983-2-7-6-6-7-62-7"
           x="91.675888"
           y="194.99959"
           style="font-style:normal;font-variant:normal;font-weight:normal;font-stretch:normal;font-size:17.0802px;font-family:sans-serif;-inkscape-font-specification:sans-serif;fill:#000000;stroke-width:0.400316">C2</tspan></text>
    </g>
    <g
       id="g1195">
      <g
         transform="matrix(0.66151104,0,0,0.66035732,302.53275,-38.615001)"
         style="stroke-width:1.51302"
         id="g1761-9-3-6-9">
        <path
           style="fill:#fcfcfc;fill-opacity:1;stroke:#000000;stroke-width:3.93383;stroke-opacity:1;paint-order:stroke fill markers"
           id="path87-3-1-6-1-2"
           sodipodi:type="arc"
           sodipodi:cx="98.905045"
           sodipodi:cy="197.01694"
           sodipodi:rx="13.749128"
           sodipodi:ry="13.486838"
           sodipodi:start="0"
           sodipodi:end="6.283098"
           sodipodi:open="true"
           sodipodi:arc-type="arc"
           d="M 112.65417,197.01694 A 13.749128,13.486838 0 0 1 98.905345,210.50378 13.749128,13.486838 0 0 1 85.155916,197.01753 13.749128,13.486838 0 0 1 98.904144,183.5301 13.749128,13.486838 0 0 1 112.65417,197.01576" />
      </g>
      <text
         xml:space="preserve"
         style="font-size:14.1111px;line-height:0.55;font-family:sans-serif;letter-spacing:0px;word-spacing:0px;fill:#000000;stroke-width:0.264582"
         x="379.728"
         y="92.439026"
         id="text1985-0-3-3-5-2-0-9"
         transform="scale(0.95793745,1.0439095)"><tspan
           sodipodi:role="line"
           id="tspan1983-2-7-6-6-7-62-1"
           x="379.728"
           y="92.439026"
           style="font-style:normal;font-variant:normal;font-weight:normal;font-stretch:normal;font-size:14.1111px;font-family:sans-serif;-inkscape-font-specification:sans-serif;fill:#000000;stroke-width:0.264582">B</tspan></text>
    </g>
    <g
       transform="translate(208.23277,-60.027632)"
       id="g1195-5">
      <g
         id="g1761-9-3-6-9-9"
         style="stroke-width:1.51302"
         transform="matrix(0.66151104,0,0,0.66035732,302.53275,-38.615001)">
        <path
           d="M 112.65417,197.01694 A 13.749128,13.486838 0 0 1 98.905345,210.50378 13.749128,13.486838 0 0 1 85.155916,197.01753 13.749128,13.486838 0 0 1 98.904144,183.5301 13.749128,13.486838 0 0 1 112.65417,197.01576"
           sodipodi:arc-type="arc"
           sodipodi:open="true"
           sodipodi:end="6.283098"
           sodipodi:start="0"
           sodipodi:ry="13.486838"
           sodipodi:rx="13.749128"
           sodipodi:cy="197.01694"
           sodipodi:cx="98.905045"
           sodipodi:type="arc"
           id="path87-3-1-6-1-2-2"
           style="fill:#fcfcfc;fill-opacity:1;stroke:#000000;stroke-width:3.93383;stroke-opacity:1;paint-order:stroke fill markers" />
      </g>
      <text
         transform="scale(0.95793745,1.0439095)"
         id="text1985-0-3-3-5-2-0-9-2"
         y="92.439026"
         x="379.728"
         style="font-size:14.1111px;line-height:0.55;font-family:sans-serif;letter-spacing:0px;word-spacing:0px;fill:#000000;stroke-width:0.264582"
         xml:space="preserve"><tspan
           style="font-style:normal;font-variant:normal;font-weight:normal;font-stretch:normal;font-size:14.1111px;font-family:sans-serif;-inkscape-font-specification:sans-serif;fill:#000000;stroke-width:0.264582"
           y="92.439026"
           x="379.728"
           id="tspan1983-2-7-6-6-7-62-1-8"
           sodipodi:role="line">A</tspan></text>
    </g>
    <g
       transform="translate(230.72421,118.33832)"
       id="g1195-9">
      <g
         id="g1761-9-3-6-9-7"
         style="stroke-width:1.51302"
         transform="matrix(0.66151104,0,0,0.66035732,302.53275,-38.615001)">
        <path
           d="M 112.65417,197.01694 A 13.749128,13.486838 0 0 1 98.905345,210.50378 13.749128,13.486838 0 0 1 85.155916,197.01753 13.749128,13.486838 0 0 1 98.904144,183.5301 13.749128,13.486838 0 0 1 112.65417,197.01576"
           sodipodi:arc-type="arc"
           sodipodi:open="true"
           sodipodi:end="6.283098"
           sodipodi:start="0"
           sodipodi:ry="13.486838"
           sodipodi:rx="13.749128"
           sodipodi:cy="197.01694"
           sodipodi:cx="98.905045"
           sodipodi:type="arc"
           id="path87-3-1-6-1-2-3"
           style="fill:#fcfcfc;fill-opacity:1;stroke:#000000;stroke-width:3.93383;stroke-opacity:1;paint-order:stroke fill markers" />
      </g>
      <text
         transform="scale(0.95793745,1.0439095)"
         id="text1985-0-3-3-5-2-0-9-6"
         y="92.439026"
         x="379.24741"
         style="font-size:14.1111px;line-height:0.55;font-family:sans-serif;letter-spacing:0px;word-spacing:0px;fill:#000000;stroke-width:0.264582"
         xml:space="preserve"><tspan
           style="font-style:normal;font-variant:normal;font-weight:normal;font-stretch:normal;font-size:14.1111px;font-family:sans-serif;-inkscape-font-specification:sans-serif;fill:#000000;stroke-width:0.264582"
           y="92.439026"
           x="379.24741"
           id="tspan1983-2-7-6-6-7-62-1-1"
           sodipodi:role="line">E</tspan></text>
    </g>
    <path
       style="fill:none;stroke:#000000;stroke-width:1.465;stroke-linecap:butt;stroke-linejoin:miter;stroke-miterlimit:4;stroke-dasharray:none;stroke-opacity:1;marker-end:url(#marker1993-3)"
       d="m 73.879193,136.12125 c 0,12.71414 0,12.71414 0,12.71414"
       id="path1815-6" />
    <g
       id="g1761-9-3-6-3"
       style="stroke-width:1.51302"
       transform="matrix(0.66151104,0,0,0.66035732,8.5937733,-1.0793327)">
      <path
         d="M 112.65417,197.01694 A 13.749128,13.486838 0 0 1 98.905345,210.50378 13.749128,13.486838 0 0 1 85.155916,197.01753 13.749128,13.486838 0 0 1 98.904144,183.5301 13.749128,13.486838 0 0 1 112.65417,197.01576"
         sodipodi:arc-type="arc"
         sodipodi:open="true"
         sodipodi:end="6.283098"
         sodipodi:start="0"
         sodipodi:ry="13.486838"
         sodipodi:rx="13.749128"
         sodipodi:cy="197.01694"
         sodipodi:cx="98.905045"
         sodipodi:type="arc"
         id="path87-3-1-6-1-6"
         style="fill:#fcfcfc;fill-opacity:1;stroke:#000000;stroke-width:3.93383;stroke-opacity:1;paint-order:stroke fill markers" />
      <text
         transform="scale(0.95710175,1.044821)"
         id="text1985-0-3-3-5-2-0-8-7"
         y="194.99959"
         x="91.675888"
         style="font-size:17.0802px;line-height:0.55;font-family:sans-serif;letter-spacing:0px;word-spacing:0px;fill:#000000;stroke-width:0.400316"
         xml:space="preserve"><tspan
           style="font-style:normal;font-variant:normal;font-weight:normal;font-stretch:normal;font-size:17.0802px;font-family:sans-serif;-inkscape-font-specification:sans-serif;fill:#000000;stroke-width:0.400316"
           y="194.99959"
           x="91.675888"
           id="tspan1983-2-7-6-6-7-62-7-5"
           sodipodi:role="line">D1</tspan></text>
    </g>
    <path
       id="path1815-6-1"
       d="m 550.88322,153.12646 c 0,12.71414 0,12.71414 0,12.71414"
       style="fill:none;stroke:#000000;stroke-width:1.465;stroke-linecap:butt;stroke-linejoin:miter;stroke-miterlimit:4;stroke-dasharray:none;stroke-opacity:1;marker-end:url(#marker1993-3-2)" />
    <g
       transform="matrix(0.66151104,0,0,0.66035732,485.5978,15.92587)"
       style="stroke-width:1.51302"
       id="g1761-9-3-6-3-2">
      <path
         style="fill:#fcfcfc;fill-opacity:1;stroke:#000000;stroke-width:3.93383;stroke-opacity:1;paint-order:stroke fill markers"
         id="path87-3-1-6-1-6-7"
         sodipodi:type="arc"
         sodipodi:cx="98.905045"
         sodipodi:cy="197.01694"
         sodipodi:rx="13.749128"
         sodipodi:ry="13.486838"
         sodipodi:start="0"
         sodipodi:end="6.283098"
         sodipodi:open="true"
         sodipodi:arc-type="arc"
         d="M 112.65417,197.01694 A 13.749128,13.486838 0 0 1 98.905345,210.50378 13.749128,13.486838 0 0 1 85.155916,197.01753 13.749128,13.486838 0 0 1 98.904144,183.5301 13.749128,13.486838 0 0 1 112.65417,197.01576" />
      <text
         xml:space="preserve"
         style="font-size:17.0802px;line-height:0.55;font-family:sans-serif;letter-spacing:0px;word-spacing:0px;fill:#000000;stroke-width:0.400316"
         x="91.675888"
         y="194.99959"
         id="text1985-0-3-3-5-2-0-8-7-0"
         transform="scale(0.95710175,1.044821)"><tspan
           sodipodi:role="line"
           id="tspan1983-2-7-6-6-7-62-7-5-9"
           x="91.675888"
           y="194.99959"
           style="font-style:normal;font-variant:normal;font-weight:normal;font-stretch:normal;font-size:17.0802px;font-family:sans-serif;-inkscape-font-specification:sans-serif;fill:#000000;stroke-width:0.400316">D2</tspan></text>
    </g>
  </g>
</svg>
